# lattice-align-phones exp/mono/decode_test/../final.mdl "ark:gunzip -c exp/mono/decode_test/lat.1.gz|" ark:- | lattice-to-ctm-conf --acoustic-scale=.25000000 --lm-scale=1.0 ark:- exp/mono/decode_test/scoring/4.1.ctm 
# Started at Tue Apr 11 13:57:51 CST 2017
#
lattice-align-phones exp/mono/decode_test/../final.mdl 'ark:gunzip -c exp/mono/decode_test/lat.1.gz|' ark:- 
lattice-to-ctm-conf --acoustic-scale=.25000000 --lm-scale=1.0 ark:- exp/mono/decode_test/scoring/4.1.ctm 
LOG (lattice-to-ctm-conf[5.1.46~1-0d031]:main():lattice-to-ctm-conf.cc:148) For utterance fdhc0_si1559, Bayes Risk 5.09688, avg. confidence per-word 0.910968
LOG (lattice-to-ctm-conf[5.1.46~1-0d031]:main():lattice-to-ctm-conf.cc:148) For utterance fdhc0_si2189, Bayes Risk 3.6953, avg. confidence per-word 0.883659
LOG (lattice-to-ctm-conf[5.1.46~1-0d031]:main():lattice-to-ctm-conf.cc:148) For utterance fdhc0_si929, Bayes Risk 3.66904, avg. confidence per-word 0.906615
LOG (lattice-to-ctm-conf[5.1.46~1-0d031]:main():lattice-to-ctm-conf.cc:148) For utterance fdhc0_sx119, Bayes Risk 3.43467, avg. confidence per-word 0.920278
LOG (lattice-to-ctm-conf[5.1.46~1-0d031]:main():lattice-to-ctm-conf.cc:148) For utterance fdhc0_sx209, Bayes Risk 4.59457, avg. confidence per-word 0.876736
LOG (lattice-to-ctm-conf[5.1.46~1-0d031]:main():lattice-to-ctm-conf.cc:148) For utterance fdhc0_sx29, Bayes Risk 4.83729, avg. confidence per-word 0.871683
LOG (lattice-to-ctm-conf[5.1.46~1-0d031]:main():lattice-to-ctm-conf.cc:148) For utterance fdhc0_sx299, Bayes Risk 3.76287, avg. confidence per-word 0.918324
LOG (lattice-to-ctm-conf[5.1.46~1-0d031]:main():lattice-to-ctm-conf.cc:148) For utterance fdhc0_sx389, Bayes Risk 3.04238, avg. confidence per-word 0.906417
LOG (lattice-to-ctm-conf[5.1.46~1-0d031]:main():lattice-to-ctm-conf.cc:148) For utterance felc0_si1386, Bayes Risk 8.95665, avg. confidence per-word 0.885482
LOG (lattice-to-ctm-conf[5.1.46~1-0d031]:main():lattice-to-ctm-conf.cc:148) For utterance felc0_si2016, Bayes Risk 2.9687, avg. confidence per-word 0.93533
LOG (lattice-to-ctm-conf[5.1.46~1-0d031]:main():lattice-to-ctm-conf.cc:148) For utterance felc0_si756, Bayes Risk 9.2768, avg. confidence per-word 0.816297
LOG (lattice-to-ctm-conf[5.1.46~1-0d031]:main():lattice-to-ctm-conf.cc:148) For utterance felc0_sx126, Bayes Risk 4.61488, avg. confidence per-word 0.864603
LOG (lattice-to-ctm-conf[5.1.46~1-0d031]:main():lattice-to-ctm-conf.cc:148) For utterance felc0_sx216, Bayes Risk 1.94655, avg. confidence per-word 0.95506
LOG (lattice-to-ctm-conf[5.1.46~1-0d031]:main():lattice-to-ctm-conf.cc:148) For utterance felc0_sx306, Bayes Risk 2.76303, avg. confidence per-word 0.924438
LOG (lattice-to-ctm-conf[5.1.46~1-0d031]:main():lattice-to-ctm-conf.cc:148) For utterance felc0_sx36, Bayes Risk 8.70675, avg. confidence per-word 0.829769
LOG (lattice-to-ctm-conf[5.1.46~1-0d031]:main():lattice-to-ctm-conf.cc:148) For utterance felc0_sx396, Bayes Risk 5.83315, avg. confidence per-word 0.897888
LOG (lattice-to-ctm-conf[5.1.46~1-0d031]:main():lattice-to-ctm-conf.cc:148) For utterance fjlm0_si1043, Bayes Risk 2.85474, avg. confidence per-word 0.930358
LOG (lattice-to-ctm-conf[5.1.46~1-0d031]:main():lattice-to-ctm-conf.cc:148) For utterance fjlm0_si1673, Bayes Risk 4.43387, avg. confidence per-word 0.88846
LOG (lattice-to-ctm-conf[5.1.46~1-0d031]:main():lattice-to-ctm-conf.cc:148) For utterance fjlm0_si2303, Bayes Risk 5.12069, avg. confidence per-word 0.896539
LOG (lattice-to-ctm-conf[5.1.46~1-0d031]:main():lattice-to-ctm-conf.cc:148) For utterance fjlm0_sx143, Bayes Risk 8.86736, avg. confidence per-word 0.802688
LOG (lattice-to-ctm-conf[5.1.46~1-0d031]:main():lattice-to-ctm-conf.cc:148) For utterance fjlm0_sx233, Bayes Risk 2.84031, avg. confidence per-word 0.897674
LOG (lattice-to-ctm-conf[5.1.46~1-0d031]:main():lattice-to-ctm-conf.cc:148) For utterance fjlm0_sx323, Bayes Risk 4.57839, avg. confidence per-word 0.878016
LOG (lattice-to-ctm-conf[5.1.46~1-0d031]:main():lattice-to-ctm-conf.cc:148) For utterance fjlm0_sx413, Bayes Risk 6.51186, avg. confidence per-word 0.856948
LOG (lattice-to-ctm-conf[5.1.46~1-0d031]:main():lattice-to-ctm-conf.cc:148) For utterance fjlm0_sx53, Bayes Risk 3.29674, avg. confidence per-word 0.923346
LOG (lattice-to-ctm-conf[5.1.46~1-0d031]:main():lattice-to-ctm-conf.cc:148) For utterance fmgd0_si1564, Bayes Risk 5.08269, avg. confidence per-word 0.917057
LOG (lattice-to-ctm-conf[5.1.46~1-0d031]:main():lattice-to-ctm-conf.cc:148) For utterance fmgd0_si2194, Bayes Risk 7.82047, avg. confidence per-word 0.880293
LOG (lattice-to-ctm-conf[5.1.46~1-0d031]:main():lattice-to-ctm-conf.cc:148) For utterance fmgd0_si934, Bayes Risk 4.49038, avg. confidence per-word 0.888602
LOG (lattice-to-ctm-conf[5.1.46~1-0d031]:main():lattice-to-ctm-conf.cc:148) For utterance fmgd0_sx124, Bayes Risk 3.45184, avg. confidence per-word 0.908633
LOG (lattice-to-ctm-conf[5.1.46~1-0d031]:main():lattice-to-ctm-conf.cc:148) For utterance fmgd0_sx214, Bayes Risk 5.82182, avg. confidence per-word 0.883194
LOG (lattice-to-ctm-conf[5.1.46~1-0d031]:main():lattice-to-ctm-conf.cc:148) For utterance fmgd0_sx304, Bayes Risk 4.7084, avg. confidence per-word 0.8785
LOG (lattice-to-ctm-conf[5.1.46~1-0d031]:main():lattice-to-ctm-conf.cc:148) For utterance fmgd0_sx34, Bayes Risk 2.63286, avg. confidence per-word 0.913199
LOG (lattice-to-ctm-conf[5.1.46~1-0d031]:main():lattice-to-ctm-conf.cc:148) For utterance fmgd0_sx394, Bayes Risk 4.66051, avg. confidence per-word 0.844942
LOG (lattice-to-ctm-conf[5.1.46~1-0d031]:main():lattice-to-ctm-conf.cc:148) For utterance fmld0_si2185, Bayes Risk 5.84796, avg. confidence per-word 0.885136
LOG (lattice-to-ctm-conf[5.1.46~1-0d031]:main():lattice-to-ctm-conf.cc:148) For utterance fmld0_si822, Bayes Risk 7.62769, avg. confidence per-word 0.882616
LOG (lattice-to-ctm-conf[5.1.46~1-0d031]:main():lattice-to-ctm-conf.cc:148) For utterance fmld0_si925, Bayes Risk 6.14125, avg. confidence per-word 0.862872
LOG (lattice-to-ctm-conf[5.1.46~1-0d031]:main():lattice-to-ctm-conf.cc:148) For utterance fmld0_sx115, Bayes Risk 6.4086, avg. confidence per-word 0.856393
LOG (lattice-to-ctm-conf[5.1.46~1-0d031]:main():lattice-to-ctm-conf.cc:148) For utterance fmld0_sx205, Bayes Risk 5.5545, avg. confidence per-word 0.893947
LOG (lattice-to-ctm-conf[5.1.46~1-0d031]:main():lattice-to-ctm-conf.cc:148) For utterance fmld0_sx25, Bayes Risk 5.14295, avg. confidence per-word 0.800674
LOG (lattice-to-ctm-conf[5.1.46~1-0d031]:main():lattice-to-ctm-conf.cc:148) For utterance fmld0_sx295, Bayes Risk 3.21319, avg. confidence per-word 0.950108
LOG (lattice-align-phones[5.1.46~1-0d031]:main():lattice-align-phones.cc:104) Successfully aligned 40 lattices; 0 had errors.
LOG (lattice-to-ctm-conf[5.1.46~1-0d031]:main():lattice-to-ctm-conf.cc:148) For utterance fmld0_sx385, Bayes Risk 5.03375, avg. confidence per-word 0.85184
LOG (lattice-to-ctm-conf[5.1.46~1-0d031]:main():lattice-to-ctm-conf.cc:157) Done 40 lattices.
LOG (lattice-to-ctm-conf[5.1.46~1-0d031]:main():lattice-to-ctm-conf.cc:158) Overall average Bayes Risk per sentence is 4.98356 and per word, 0.133787
# Accounting: time=4 threads=1
# Ended (code 0) at Tue Apr 11 13:57:55 CST 2017, elapsed time 4 seconds
