# compile-train-graphs --read-disambig-syms=data/lang/phones/disambig.int exp/mono/tree exp/mono/0.mdl data/lang/L.fst "ark:sym2int.pl --map-oov 5063 -f 2- data/lang/words.txt < data/train/split30/17/text|" "ark:|gzip -c >exp/mono/fsts.17.gz" 
# Started at Tue Apr 11 13:01:12 CST 2017
#
compile-train-graphs --read-disambig-syms=data/lang/phones/disambig.int exp/mono/tree exp/mono/0.mdl data/lang/L.fst 'ark:sym2int.pl --map-oov 5063 -f 2- data/lang/words.txt < data/train/split30/17/text|' 'ark:|gzip -c >exp/mono/fsts.17.gz' 
LOG (compile-train-graphs[5.1.46~1-0d031]:main():compile-train-graphs.cc:145) compile-train-graphs: succeeded for 120 graphs, failed for 0
# Accounting: time=1 threads=1
# Ended (code 0) at Tue Apr 11 13:01:13 CST 2017, elapsed time 1 seconds
