# set -o pipefail && ali-to-phones --write-lengths=true exp/mono/final.mdl "ark:gunzip -c exp/mono/ali.17.gz|" ark,t:- | sed -E "s/^[^ ]+ //" | awk 'BEGIN{FS=" ; "; OFS="\n";} {print "begin " $1; print "end " $NF; for (n=1;n<=NF;n++) print "all " $n; }' | sort | uniq -c | gzip -c > exp/mono/phone_stats.17.gz 
# Started at Tue Apr 11 13:02:33 CST 2017
#
ali-to-phones --write-lengths=true exp/mono/final.mdl 'ark:gunzip -c exp/mono/ali.17.gz|' ark,t:- 
LOG (ali-to-phones[5.1.46~1-0d031]:main():ali-to-phones.cc:134) Done 120 utterances.
# Accounting: time=0 threads=1
# Ended (code 0) at Tue Apr 11 13:02:33 CST 2017, elapsed time 0 seconds
