# lattice-align-phones exp/dnn4_pretrain-dbn_dnn/decode_dev/../final.mdl "ark:gunzip -c exp/dnn4_pretrain-dbn_dnn/decode_dev/lat.18.gz|" ark:- | lattice-to-ctm-conf --acoustic-scale=.14285714 --lm-scale=1.0 ark:- exp/dnn4_pretrain-dbn_dnn/decode_dev/scoring/7.18.ctm 
# Started at Wed Apr 12 19:28:03 CST 2017
#
lattice-align-phones exp/dnn4_pretrain-dbn_dnn/decode_dev/../final.mdl 'ark:gunzip -c exp/dnn4_pretrain-dbn_dnn/decode_dev/lat.18.gz|' ark:- 
lattice-to-ctm-conf --acoustic-scale=.14285714 --lm-scale=1.0 ark:- exp/dnn4_pretrain-dbn_dnn/decode_dev/scoring/7.18.ctm 
LOG (lattice-to-ctm-conf[5.1.46~1-0d031]:main():lattice-to-ctm-conf.cc:148) For utterance mrtk0_si1093, Bayes Risk 0.151119, avg. confidence per-word 0.996844
LOG (lattice-to-ctm-conf[5.1.46~1-0d031]:main():lattice-to-ctm-conf.cc:148) For utterance mrtk0_si1723, Bayes Risk 0.448681, avg. confidence per-word 0.990858
LOG (lattice-to-ctm-conf[5.1.46~1-0d031]:main():lattice-to-ctm-conf.cc:148) For utterance mrtk0_si1750, Bayes Risk 2.07904, avg. confidence per-word 0.970971
LOG (lattice-to-ctm-conf[5.1.46~1-0d031]:main():lattice-to-ctm-conf.cc:148) For utterance mrtk0_sx103, Bayes Risk 1.65443, avg. confidence per-word 0.966268
LOG (lattice-to-ctm-conf[5.1.46~1-0d031]:main():lattice-to-ctm-conf.cc:148) For utterance mrtk0_sx13, Bayes Risk 0.0900186, avg. confidence per-word 0.996386
LOG (lattice-to-ctm-conf[5.1.46~1-0d031]:main():lattice-to-ctm-conf.cc:148) For utterance mrtk0_sx193, Bayes Risk 0.783651, avg. confidence per-word 0.968209
LOG (lattice-to-ctm-conf[5.1.46~1-0d031]:main():lattice-to-ctm-conf.cc:148) For utterance mrtk0_sx283, Bayes Risk 1.69546, avg. confidence per-word 0.960689
LOG (lattice-to-ctm-conf[5.1.46~1-0d031]:main():lattice-to-ctm-conf.cc:148) For utterance mrtk0_sx373, Bayes Risk 0.108298, avg. confidence per-word 0.996943
LOG (lattice-to-ctm-conf[5.1.46~1-0d031]:main():lattice-to-ctm-conf.cc:148) For utterance mrws1_si1130, Bayes Risk 1.04763, avg. confidence per-word 0.977364
LOG (lattice-to-ctm-conf[5.1.46~1-0d031]:main():lattice-to-ctm-conf.cc:148) For utterance mrws1_si1496, Bayes Risk 0.569276, avg. confidence per-word 0.984628
LOG (lattice-to-ctm-conf[5.1.46~1-0d031]:main():lattice-to-ctm-conf.cc:148) For utterance mrws1_si500, Bayes Risk 0.686839, avg. confidence per-word 0.985468
LOG (lattice-to-ctm-conf[5.1.46~1-0d031]:main():lattice-to-ctm-conf.cc:148) For utterance mrws1_sx140, Bayes Risk 0.193753, avg. confidence per-word 0.996196
LOG (lattice-to-ctm-conf[5.1.46~1-0d031]:main():lattice-to-ctm-conf.cc:148) For utterance mrws1_sx230, Bayes Risk 0.455131, avg. confidence per-word 0.984862
LOG (lattice-to-ctm-conf[5.1.46~1-0d031]:main():lattice-to-ctm-conf.cc:148) For utterance mrws1_sx320, Bayes Risk 0.782198, avg. confidence per-word 0.982263
LOG (lattice-to-ctm-conf[5.1.46~1-0d031]:main():lattice-to-ctm-conf.cc:148) For utterance mrws1_sx410, Bayes Risk 0.172367, avg. confidence per-word 0.995009
LOG (lattice-align-phones[5.1.46~1-0d031]:main():lattice-align-phones.cc:104) Successfully aligned 16 lattices; 0 had errors.
LOG (lattice-to-ctm-conf[5.1.46~1-0d031]:main():lattice-to-ctm-conf.cc:148) For utterance mrws1_sx50, Bayes Risk 0.727295, avg. confidence per-word 0.98488
LOG (lattice-to-ctm-conf[5.1.46~1-0d031]:main():lattice-to-ctm-conf.cc:157) Done 16 lattices.
LOG (lattice-to-ctm-conf[5.1.46~1-0d031]:main():lattice-to-ctm-conf.cc:158) Overall average Bayes Risk per sentence is 0.727825 and per word, 0.0194411
# Accounting: time=0 threads=1
# Ended (code 0) at Wed Apr 12 19:28:03 CST 2017, elapsed time 0 seconds
