# lattice-align-phones exp/dnn4_pretrain-dbn_dnn/decode_dev/../final.mdl "ark:gunzip -c exp/dnn4_pretrain-dbn_dnn/decode_dev/lat.3.gz|" ark:- | lattice-to-ctm-conf --acoustic-scale=.07692307 --lm-scale=1.0 ark:- exp/dnn4_pretrain-dbn_dnn/decode_dev/scoring/13.3.ctm 
# Started at Wed Apr 12 19:28:05 CST 2017
#
lattice-to-ctm-conf --acoustic-scale=.07692307 --lm-scale=1.0 ark:- exp/dnn4_pretrain-dbn_dnn/decode_dev/scoring/13.3.ctm 
lattice-align-phones exp/dnn4_pretrain-dbn_dnn/decode_dev/../final.mdl 'ark:gunzip -c exp/dnn4_pretrain-dbn_dnn/decode_dev/lat.3.gz|' ark:- 
LOG (lattice-to-ctm-conf[5.1.46~1-0d031]:main():lattice-to-ctm-conf.cc:148) For utterance fdms0_si1218, Bayes Risk 0.468617, avg. confidence per-word 0.986683
LOG (lattice-to-ctm-conf[5.1.46~1-0d031]:main():lattice-to-ctm-conf.cc:148) For utterance fdms0_si1502, Bayes Risk 1.85704, avg. confidence per-word 0.971356
LOG (lattice-to-ctm-conf[5.1.46~1-0d031]:main():lattice-to-ctm-conf.cc:148) For utterance fdms0_si1848, Bayes Risk 1.16115, avg. confidence per-word 0.990745
LOG (lattice-to-ctm-conf[5.1.46~1-0d031]:main():lattice-to-ctm-conf.cc:148) For utterance fdms0_sx138, Bayes Risk 1.32939, avg. confidence per-word 0.969787
LOG (lattice-to-ctm-conf[5.1.46~1-0d031]:main():lattice-to-ctm-conf.cc:148) For utterance fdms0_sx228, Bayes Risk 0.399584, avg. confidence per-word 0.984144
LOG (lattice-to-ctm-conf[5.1.46~1-0d031]:main():lattice-to-ctm-conf.cc:148) For utterance fdms0_sx318, Bayes Risk 1.24357, avg. confidence per-word 0.976897
LOG (lattice-to-ctm-conf[5.1.46~1-0d031]:main():lattice-to-ctm-conf.cc:148) For utterance fdms0_sx408, Bayes Risk 3.16627, avg. confidence per-word 0.922222
LOG (lattice-to-ctm-conf[5.1.46~1-0d031]:main():lattice-to-ctm-conf.cc:148) For utterance fdms0_sx48, Bayes Risk 1.31197, avg. confidence per-word 0.969866
LOG (lattice-to-ctm-conf[5.1.46~1-0d031]:main():lattice-to-ctm-conf.cc:148) For utterance fdrw0_si1283, Bayes Risk 2.89957, avg. confidence per-word 0.966073
LOG (lattice-to-ctm-conf[5.1.46~1-0d031]:main():lattice-to-ctm-conf.cc:148) For utterance fdrw0_si1423, Bayes Risk 0.404189, avg. confidence per-word 0.988323
LOG (lattice-to-ctm-conf[5.1.46~1-0d031]:main():lattice-to-ctm-conf.cc:148) For utterance fdrw0_si653, Bayes Risk 0.783258, avg. confidence per-word 0.97588
LOG (lattice-to-ctm-conf[5.1.46~1-0d031]:main():lattice-to-ctm-conf.cc:148) For utterance fdrw0_sx113, Bayes Risk 1.67042, avg. confidence per-word 0.982872
LOG (lattice-to-ctm-conf[5.1.46~1-0d031]:main():lattice-to-ctm-conf.cc:148) For utterance fdrw0_sx203, Bayes Risk 0.775328, avg. confidence per-word 0.977373
LOG (lattice-to-ctm-conf[5.1.46~1-0d031]:main():lattice-to-ctm-conf.cc:148) For utterance fdrw0_sx23, Bayes Risk 0.629994, avg. confidence per-word 0.984567
LOG (lattice-to-ctm-conf[5.1.46~1-0d031]:main():lattice-to-ctm-conf.cc:148) For utterance fdrw0_sx293, Bayes Risk 1.03332, avg. confidence per-word 0.980553
LOG (lattice-to-ctm-conf[5.1.46~1-0d031]:main():lattice-to-ctm-conf.cc:148) For utterance fdrw0_sx383, Bayes Risk 1.45788, avg. confidence per-word 0.964752
LOG (lattice-to-ctm-conf[5.1.46~1-0d031]:main():lattice-to-ctm-conf.cc:148) For utterance fedw0_si1084, Bayes Risk 1.69667, avg. confidence per-word 0.969357
LOG (lattice-to-ctm-conf[5.1.46~1-0d031]:main():lattice-to-ctm-conf.cc:148) For utterance fedw0_si1653, Bayes Risk 0.439503, avg. confidence per-word 1
LOG (lattice-to-ctm-conf[5.1.46~1-0d031]:main():lattice-to-ctm-conf.cc:148) For utterance fedw0_si1714, Bayes Risk 1.68574, avg. confidence per-word 0.948344
LOG (lattice-to-ctm-conf[5.1.46~1-0d031]:main():lattice-to-ctm-conf.cc:148) For utterance fedw0_sx184, Bayes Risk 0.784639, avg. confidence per-word 0.983224
LOG (lattice-to-ctm-conf[5.1.46~1-0d031]:main():lattice-to-ctm-conf.cc:148) For utterance fedw0_sx274, Bayes Risk 1.02613, avg. confidence per-word 0.99632
LOG (lattice-to-ctm-conf[5.1.46~1-0d031]:main():lattice-to-ctm-conf.cc:148) For utterance fedw0_sx364, Bayes Risk 0.777873, avg. confidence per-word 0.993862
LOG (lattice-align-phones[5.1.46~1-0d031]:main():lattice-align-phones.cc:104) Successfully aligned 24 lattices; 0 had errors.
LOG (lattice-to-ctm-conf[5.1.46~1-0d031]:main():lattice-to-ctm-conf.cc:148) For utterance fedw0_sx4, Bayes Risk 1.07863, avg. confidence per-word 0.972318
LOG (lattice-to-ctm-conf[5.1.46~1-0d031]:main():lattice-to-ctm-conf.cc:148) For utterance fedw0_sx94, Bayes Risk 0.789609, avg. confidence per-word 0.980187
LOG (lattice-to-ctm-conf[5.1.46~1-0d031]:main():lattice-to-ctm-conf.cc:157) Done 24 lattices.
LOG (lattice-to-ctm-conf[5.1.46~1-0d031]:main():lattice-to-ctm-conf.cc:158) Overall average Bayes Risk per sentence is 1.20293 and per word, 0.0332607
# Accounting: time=1 threads=1
# Ended (code 0) at Wed Apr 12 19:28:06 CST 2017, elapsed time 1 seconds
