# lattice-align-phones exp/dnn4_pretrain-dbn_dnn/decode_test/../final.mdl "ark:gunzip -c exp/dnn4_pretrain-dbn_dnn/decode_test/lat.7.gz|" ark:- | lattice-to-ctm-conf --acoustic-scale=.09090909 --lm-scale=1.0 ark:- exp/dnn4_pretrain-dbn_dnn/decode_test/scoring/11.7.ctm 
# Started at Tue Apr 18 15:41:12 CST 2017
#
lattice-to-ctm-conf --acoustic-scale=.09090909 --lm-scale=1.0 ark:- exp/dnn4_pretrain-dbn_dnn/decode_test/scoring/11.7.ctm 
lattice-align-phones exp/dnn4_pretrain-dbn_dnn/decode_test/../final.mdl 'ark:gunzip -c exp/dnn4_pretrain-dbn_dnn/decode_test/lat.7.gz|' ark:- 
LOG (lattice-to-ctm-conf[5.1.46~1-0d031]:main():lattice-to-ctm-conf.cc:148) For utterance MM001_cw1, Bayes Risk 2.08379, avg. confidence per-word 0.912405
LOG (lattice-to-ctm-conf[5.1.46~1-0d031]:main():lattice-to-ctm-conf.cc:148) For utterance MM001_cw10, Bayes Risk 4.86489, avg. confidence per-word 0.930738
LOG (lattice-to-ctm-conf[5.1.46~1-0d031]:main():lattice-to-ctm-conf.cc:148) For utterance MM001_cw2, Bayes Risk 6.66217, avg. confidence per-word 0.809644
LOG (lattice-to-ctm-conf[5.1.46~1-0d031]:main():lattice-to-ctm-conf.cc:148) For utterance MM001_cw3, Bayes Risk 1.19011, avg. confidence per-word 0.936322
LOG (lattice-to-ctm-conf[5.1.46~1-0d031]:main():lattice-to-ctm-conf.cc:148) For utterance MM001_cw4, Bayes Risk 1.93506, avg. confidence per-word 0.932492
LOG (lattice-to-ctm-conf[5.1.46~1-0d031]:main():lattice-to-ctm-conf.cc:148) For utterance MM001_cw5, Bayes Risk 3.7364, avg. confidence per-word 0.928059
LOG (lattice-to-ctm-conf[5.1.46~1-0d031]:main():lattice-to-ctm-conf.cc:148) For utterance MM001_cw6, Bayes Risk 2.04134, avg. confidence per-word 0.953722
LOG (lattice-to-ctm-conf[5.1.46~1-0d031]:main():lattice-to-ctm-conf.cc:148) For utterance MM001_cw7, Bayes Risk 2.59418, avg. confidence per-word 0.902068
LOG (lattice-to-ctm-conf[5.1.46~1-0d031]:main():lattice-to-ctm-conf.cc:148) For utterance MM001_cw8, Bayes Risk 2.54883, avg. confidence per-word 0.929543
LOG (lattice-to-ctm-conf[5.1.46~1-0d031]:main():lattice-to-ctm-conf.cc:148) For utterance MM001_cw9, Bayes Risk 2.46395, avg. confidence per-word 0.951736
LOG (lattice-to-ctm-conf[5.1.46~1-0d031]:main():lattice-to-ctm-conf.cc:148) For utterance MM001_mp1, Bayes Risk 2.05638, avg. confidence per-word 0.953646
LOG (lattice-to-ctm-conf[5.1.46~1-0d031]:main():lattice-to-ctm-conf.cc:148) For utterance MM001_mp10, Bayes Risk 2.17903, avg. confidence per-word 0.918885
LOG (lattice-to-ctm-conf[5.1.46~1-0d031]:main():lattice-to-ctm-conf.cc:148) For utterance MM001_mp11, Bayes Risk 1.57693, avg. confidence per-word 0.968373
LOG (lattice-to-ctm-conf[5.1.46~1-0d031]:main():lattice-to-ctm-conf.cc:148) For utterance MM001_mp12, Bayes Risk 3.10118, avg. confidence per-word 0.905568
LOG (lattice-to-ctm-conf[5.1.46~1-0d031]:main():lattice-to-ctm-conf.cc:148) For utterance MM001_mp13, Bayes Risk 0.942371, avg. confidence per-word 0.958389
LOG (lattice-to-ctm-conf[5.1.46~1-0d031]:main():lattice-to-ctm-conf.cc:148) For utterance MM001_mp14, Bayes Risk 1.81028, avg. confidence per-word 0.927603
LOG (lattice-to-ctm-conf[5.1.46~1-0d031]:main():lattice-to-ctm-conf.cc:148) For utterance MM001_mp15, Bayes Risk 2.48512, avg. confidence per-word 0.892264
LOG (lattice-to-ctm-conf[5.1.46~1-0d031]:main():lattice-to-ctm-conf.cc:148) For utterance MM001_mp16, Bayes Risk 1.73668, avg. confidence per-word 0.946697
LOG (lattice-to-ctm-conf[5.1.46~1-0d031]:main():lattice-to-ctm-conf.cc:148) For utterance MM001_mp17, Bayes Risk 3.14319, avg. confidence per-word 0.878801
LOG (lattice-to-ctm-conf[5.1.46~1-0d031]:main():lattice-to-ctm-conf.cc:148) For utterance MM001_mp18, Bayes Risk 1.21392, avg. confidence per-word 0.985176
LOG (lattice-to-ctm-conf[5.1.46~1-0d031]:main():lattice-to-ctm-conf.cc:148) For utterance MM001_mp19, Bayes Risk 1.53663, avg. confidence per-word 0.947271
LOG (lattice-to-ctm-conf[5.1.46~1-0d031]:main():lattice-to-ctm-conf.cc:148) For utterance MM001_mp2, Bayes Risk 1.31657, avg. confidence per-word 0.940589
LOG (lattice-to-ctm-conf[5.1.46~1-0d031]:main():lattice-to-ctm-conf.cc:148) For utterance MM001_mp20, Bayes Risk 1.1203, avg. confidence per-word 0.959388
LOG (lattice-to-ctm-conf[5.1.46~1-0d031]:main():lattice-to-ctm-conf.cc:148) For utterance MM001_mp21, Bayes Risk 3.30725, avg. confidence per-word 0.901498
LOG (lattice-to-ctm-conf[5.1.46~1-0d031]:main():lattice-to-ctm-conf.cc:148) For utterance MM001_mp22, Bayes Risk 2.67671, avg. confidence per-word 0.904051
LOG (lattice-to-ctm-conf[5.1.46~1-0d031]:main():lattice-to-ctm-conf.cc:148) For utterance MM001_mp23, Bayes Risk 1.9388, avg. confidence per-word 0.959931
LOG (lattice-to-ctm-conf[5.1.46~1-0d031]:main():lattice-to-ctm-conf.cc:148) For utterance MM001_mp24, Bayes Risk 0.371942, avg. confidence per-word 0.986517
LOG (lattice-to-ctm-conf[5.1.46~1-0d031]:main():lattice-to-ctm-conf.cc:148) For utterance MM001_mp25, Bayes Risk 3.23549, avg. confidence per-word 0.919783
LOG (lattice-to-ctm-conf[5.1.46~1-0d031]:main():lattice-to-ctm-conf.cc:148) For utterance MM001_mp26, Bayes Risk 3.95977, avg. confidence per-word 0.873709
LOG (lattice-to-ctm-conf[5.1.46~1-0d031]:main():lattice-to-ctm-conf.cc:148) For utterance MM001_mp27, Bayes Risk 2.04941, avg. confidence per-word 0.892568
LOG (lattice-to-ctm-conf[5.1.46~1-0d031]:main():lattice-to-ctm-conf.cc:148) For utterance MM001_mp28, Bayes Risk 1.3669, avg. confidence per-word 0.948569
LOG (lattice-to-ctm-conf[5.1.46~1-0d031]:main():lattice-to-ctm-conf.cc:148) For utterance MM001_mp29, Bayes Risk 1.40277, avg. confidence per-word 0.977797
LOG (lattice-to-ctm-conf[5.1.46~1-0d031]:main():lattice-to-ctm-conf.cc:148) For utterance MM001_mp3, Bayes Risk 4.04112, avg. confidence per-word 0.848818
LOG (lattice-to-ctm-conf[5.1.46~1-0d031]:main():lattice-to-ctm-conf.cc:148) For utterance MM001_mp30, Bayes Risk 1.64105, avg. confidence per-word 0.936168
LOG (lattice-to-ctm-conf[5.1.46~1-0d031]:main():lattice-to-ctm-conf.cc:148) For utterance MM001_mp31, Bayes Risk 2.09076, avg. confidence per-word 0.935989
LOG (lattice-to-ctm-conf[5.1.46~1-0d031]:main():lattice-to-ctm-conf.cc:148) For utterance MM001_mp32, Bayes Risk 2.72092, avg. confidence per-word 0.896164
LOG (lattice-to-ctm-conf[5.1.46~1-0d031]:main():lattice-to-ctm-conf.cc:148) For utterance MM001_mp33, Bayes Risk 2.45546, avg. confidence per-word 0.93021
LOG (lattice-to-ctm-conf[5.1.46~1-0d031]:main():lattice-to-ctm-conf.cc:148) For utterance MM001_mp34, Bayes Risk 1.9023, avg. confidence per-word 0.950008
LOG (lattice-to-ctm-conf[5.1.46~1-0d031]:main():lattice-to-ctm-conf.cc:148) For utterance MM001_mp35, Bayes Risk 0.722733, avg. confidence per-word 0.991358
LOG (lattice-to-ctm-conf[5.1.46~1-0d031]:main():lattice-to-ctm-conf.cc:148) For utterance MM001_mp36, Bayes Risk 1.61243, avg. confidence per-word 0.961922
LOG (lattice-to-ctm-conf[5.1.46~1-0d031]:main():lattice-to-ctm-conf.cc:148) For utterance MM001_mp37, Bayes Risk 0.831802, avg. confidence per-word 0.962893
LOG (lattice-to-ctm-conf[5.1.46~1-0d031]:main():lattice-to-ctm-conf.cc:148) For utterance MM001_mp38, Bayes Risk 1.00566, avg. confidence per-word 0.961286
LOG (lattice-to-ctm-conf[5.1.46~1-0d031]:main():lattice-to-ctm-conf.cc:148) For utterance MM001_mp39, Bayes Risk 2.64634, avg. confidence per-word 0.900475
LOG (lattice-to-ctm-conf[5.1.46~1-0d031]:main():lattice-to-ctm-conf.cc:148) For utterance MM001_mp4, Bayes Risk 4.22186, avg. confidence per-word 0.78442
LOG (lattice-to-ctm-conf[5.1.46~1-0d031]:main():lattice-to-ctm-conf.cc:148) For utterance MM001_mp40, Bayes Risk 1.44713, avg. confidence per-word 0.946435
LOG (lattice-to-ctm-conf[5.1.46~1-0d031]:main():lattice-to-ctm-conf.cc:148) For utterance MM001_mp41, Bayes Risk 2.43136, avg. confidence per-word 0.93275
LOG (lattice-to-ctm-conf[5.1.46~1-0d031]:main():lattice-to-ctm-conf.cc:148) For utterance MM001_mp42, Bayes Risk 1.89525, avg. confidence per-word 0.941693
LOG (lattice-to-ctm-conf[5.1.46~1-0d031]:main():lattice-to-ctm-conf.cc:148) For utterance MM001_mp43, Bayes Risk 2.10057, avg. confidence per-word 0.922185
LOG (lattice-to-ctm-conf[5.1.46~1-0d031]:main():lattice-to-ctm-conf.cc:148) For utterance MM001_mp44, Bayes Risk 3.84611, avg. confidence per-word 0.937442
LOG (lattice-to-ctm-conf[5.1.46~1-0d031]:main():lattice-to-ctm-conf.cc:148) For utterance MM001_mp45, Bayes Risk 3.59081, avg. confidence per-word 0.893502
LOG (lattice-to-ctm-conf[5.1.46~1-0d031]:main():lattice-to-ctm-conf.cc:148) For utterance MM001_mp46, Bayes Risk 2.49461, avg. confidence per-word 0.927747
LOG (lattice-to-ctm-conf[5.1.46~1-0d031]:main():lattice-to-ctm-conf.cc:148) For utterance MM001_mp47, Bayes Risk 1.8693, avg. confidence per-word 0.922172
LOG (lattice-to-ctm-conf[5.1.46~1-0d031]:main():lattice-to-ctm-conf.cc:148) For utterance MM001_mp48, Bayes Risk 2.33392, avg. confidence per-word 0.950854
LOG (lattice-to-ctm-conf[5.1.46~1-0d031]:main():lattice-to-ctm-conf.cc:148) For utterance MM001_mp49, Bayes Risk 0.321755, avg. confidence per-word 0.9986
LOG (lattice-to-ctm-conf[5.1.46~1-0d031]:main():lattice-to-ctm-conf.cc:148) For utterance MM001_mp5, Bayes Risk 4.43529, avg. confidence per-word 0.865301
LOG (lattice-to-ctm-conf[5.1.46~1-0d031]:main():lattice-to-ctm-conf.cc:148) For utterance MM001_mp50, Bayes Risk 0.585489, avg. confidence per-word 0.997812
LOG (lattice-to-ctm-conf[5.1.46~1-0d031]:main():lattice-to-ctm-conf.cc:148) For utterance MM001_mp6, Bayes Risk 2.24324, avg. confidence per-word 0.915079
LOG (lattice-to-ctm-conf[5.1.46~1-0d031]:main():lattice-to-ctm-conf.cc:148) For utterance MM001_mp7, Bayes Risk 3.39235, avg. confidence per-word 0.866325
LOG (lattice-to-ctm-conf[5.1.46~1-0d031]:main():lattice-to-ctm-conf.cc:148) For utterance MM001_mp8, Bayes Risk 0.40871, avg. confidence per-word 0.980753
LOG (lattice-to-ctm-conf[5.1.46~1-0d031]:main():lattice-to-ctm-conf.cc:148) For utterance MM001_mp9, Bayes Risk 2.99464, avg. confidence per-word 0.877938
LOG (lattice-to-ctm-conf[5.1.46~1-0d031]:main():lattice-to-ctm-conf.cc:148) For utterance MM001_nw1, Bayes Risk 6.40641, avg. confidence per-word 0.933016
LOG (lattice-to-ctm-conf[5.1.46~1-0d031]:main():lattice-to-ctm-conf.cc:148) For utterance MM001_nw2, Bayes Risk 9.59412, avg. confidence per-word 0.922666
LOG (lattice-to-ctm-conf[5.1.46~1-0d031]:main():lattice-to-ctm-conf.cc:148) For utterance MM001_nw3, Bayes Risk 9.60002, avg. confidence per-word 0.940422
LOG (lattice-to-ctm-conf[5.1.46~1-0d031]:main():lattice-to-ctm-conf.cc:148) For utterance MM001_nw4, Bayes Risk 2.9854, avg. confidence per-word 0.943179
LOG (lattice-to-ctm-conf[5.1.46~1-0d031]:main():lattice-to-ctm-conf.cc:148) For utterance MM001_nw5, Bayes Risk 5.43571, avg. confidence per-word 0.930952
LOG (lattice-to-ctm-conf[5.1.46~1-0d031]:main():lattice-to-ctm-conf.cc:148) For utterance MM001_nw6, Bayes Risk 6.7682, avg. confidence per-word 0.960401
LOG (lattice-to-ctm-conf[5.1.46~1-0d031]:main():lattice-to-ctm-conf.cc:148) For utterance MM001_ps1, Bayes Risk 2.87844, avg. confidence per-word 0.930365
LOG (lattice-to-ctm-conf[5.1.46~1-0d031]:main():lattice-to-ctm-conf.cc:148) For utterance MM001_ps10, Bayes Risk 6.09763, avg. confidence per-word 0.91295
LOG (lattice-to-ctm-conf[5.1.46~1-0d031]:main():lattice-to-ctm-conf.cc:148) For utterance MM001_ps11, Bayes Risk 2.20633, avg. confidence per-word 0.947789
LOG (lattice-to-ctm-conf[5.1.46~1-0d031]:main():lattice-to-ctm-conf.cc:148) For utterance MM001_ps12, Bayes Risk 9.24422, avg. confidence per-word 0.857475
LOG (lattice-to-ctm-conf[5.1.46~1-0d031]:main():lattice-to-ctm-conf.cc:148) For utterance MM001_ps13, Bayes Risk 3.70974, avg. confidence per-word 0.975111
LOG (lattice-to-ctm-conf[5.1.46~1-0d031]:main():lattice-to-ctm-conf.cc:148) For utterance MM001_ps14, Bayes Risk 2.57454, avg. confidence per-word 0.938372
LOG (lattice-to-ctm-conf[5.1.46~1-0d031]:main():lattice-to-ctm-conf.cc:148) For utterance MM001_ps15, Bayes Risk 1.68198, avg. confidence per-word 0.964669
LOG (lattice-to-ctm-conf[5.1.46~1-0d031]:main():lattice-to-ctm-conf.cc:148) For utterance MM001_ps16, Bayes Risk 1.29047, avg. confidence per-word 0.974799
LOG (lattice-to-ctm-conf[5.1.46~1-0d031]:main():lattice-to-ctm-conf.cc:148) For utterance MM001_ps17, Bayes Risk 3.47374, avg. confidence per-word 0.956643
LOG (lattice-to-ctm-conf[5.1.46~1-0d031]:main():lattice-to-ctm-conf.cc:148) For utterance MM001_ps18, Bayes Risk 6.61294, avg. confidence per-word 0.920736
LOG (lattice-to-ctm-conf[5.1.46~1-0d031]:main():lattice-to-ctm-conf.cc:148) For utterance MM001_ps19, Bayes Risk 4.60006, avg. confidence per-word 0.966948
LOG (lattice-to-ctm-conf[5.1.46~1-0d031]:main():lattice-to-ctm-conf.cc:148) For utterance MM001_ps2, Bayes Risk 2.46194, avg. confidence per-word 0.983042
LOG (lattice-to-ctm-conf[5.1.46~1-0d031]:main():lattice-to-ctm-conf.cc:148) For utterance MM001_ps20, Bayes Risk 1.28212, avg. confidence per-word 0.977498
LOG (lattice-to-ctm-conf[5.1.46~1-0d031]:main():lattice-to-ctm-conf.cc:148) For utterance MM001_ps3, Bayes Risk 6.14951, avg. confidence per-word 0.913571
LOG (lattice-to-ctm-conf[5.1.46~1-0d031]:main():lattice-to-ctm-conf.cc:148) For utterance MM001_ps4, Bayes Risk 6.92741, avg. confidence per-word 0.90268
LOG (lattice-to-ctm-conf[5.1.46~1-0d031]:main():lattice-to-ctm-conf.cc:148) For utterance MM001_ps5, Bayes Risk 3.9009, avg. confidence per-word 0.894951
LOG (lattice-to-ctm-conf[5.1.46~1-0d031]:main():lattice-to-ctm-conf.cc:148) For utterance MM001_ps6, Bayes Risk 2.24578, avg. confidence per-word 0.952727
LOG (lattice-to-ctm-conf[5.1.46~1-0d031]:main():lattice-to-ctm-conf.cc:148) For utterance MM001_ps7, Bayes Risk 4.67718, avg. confidence per-word 0.889467
LOG (lattice-to-ctm-conf[5.1.46~1-0d031]:main():lattice-to-ctm-conf.cc:148) For utterance MM001_ps8, Bayes Risk 3.60078, avg. confidence per-word 0.94194
LOG (lattice-to-ctm-conf[5.1.46~1-0d031]:main():lattice-to-ctm-conf.cc:148) For utterance MM001_ps9, Bayes Risk 8.74429, avg. confidence per-word 0.903528
LOG (lattice-to-ctm-conf[5.1.46~1-0d031]:main():lattice-to-ctm-conf.cc:148) For utterance MM001_sa1, Bayes Risk 3.45802, avg. confidence per-word 0.945393
LOG (lattice-to-ctm-conf[5.1.46~1-0d031]:main():lattice-to-ctm-conf.cc:148) For utterance MM001_sa2, Bayes Risk 2.88613, avg. confidence per-word 0.960144
LOG (lattice-to-ctm-conf[5.1.46~1-0d031]:main():lattice-to-ctm-conf.cc:148) For utterance MM001_si1013, Bayes Risk 5.28214, avg. confidence per-word 0.937584
LOG (lattice-to-ctm-conf[5.1.46~1-0d031]:main():lattice-to-ctm-conf.cc:148) For utterance MM001_si1015, Bayes Risk 5.01267, avg. confidence per-word 0.934636
LOG (lattice-to-ctm-conf[5.1.46~1-0d031]:main():lattice-to-ctm-conf.cc:148) For utterance MM001_si1019, Bayes Risk 4.0695, avg. confidence per-word 0.927611
LOG (lattice-to-ctm-conf[5.1.46~1-0d031]:main():lattice-to-ctm-conf.cc:148) For utterance MM001_si1024, Bayes Risk 6.66059, avg. confidence per-word 0.890301
LOG (lattice-to-ctm-conf[5.1.46~1-0d031]:main():lattice-to-ctm-conf.cc:148) For utterance MM001_si1026, Bayes Risk 2.36201, avg. confidence per-word 0.907667
LOG (lattice-to-ctm-conf[5.1.46~1-0d031]:main():lattice-to-ctm-conf.cc:148) For utterance MM001_si1028, Bayes Risk 1.29355, avg. confidence per-word 0.960304
LOG (lattice-to-ctm-conf[5.1.46~1-0d031]:main():lattice-to-ctm-conf.cc:148) For utterance MM001_si1029, Bayes Risk 1.09991, avg. confidence per-word 0.945873
LOG (lattice-to-ctm-conf[5.1.46~1-0d031]:main():lattice-to-ctm-conf.cc:148) For utterance MM001_si1030, Bayes Risk 1.46639, avg. confidence per-word 0.930898
LOG (lattice-to-ctm-conf[5.1.46~1-0d031]:main():lattice-to-ctm-conf.cc:148) For utterance MM001_si1031, Bayes Risk 3.92421, avg. confidence per-word 0.90621
LOG (lattice-to-ctm-conf[5.1.46~1-0d031]:main():lattice-to-ctm-conf.cc:148) For utterance MM001_si1032, Bayes Risk 2.99461, avg. confidence per-word 0.947735
LOG (lattice-to-ctm-conf[5.1.46~1-0d031]:main():lattice-to-ctm-conf.cc:148) For utterance MM001_si1033, Bayes Risk 0.833557, avg. confidence per-word 0.986876
LOG (lattice-to-ctm-conf[5.1.46~1-0d031]:main():lattice-to-ctm-conf.cc:148) For utterance MM001_si1034, Bayes Risk 0.939445, avg. confidence per-word 0.950458
LOG (lattice-to-ctm-conf[5.1.46~1-0d031]:main():lattice-to-ctm-conf.cc:148) For utterance MM001_si1035, Bayes Risk 6.20013, avg. confidence per-word 0.900361
LOG (lattice-to-ctm-conf[5.1.46~1-0d031]:main():lattice-to-ctm-conf.cc:148) For utterance MM001_si1036, Bayes Risk 6.38583, avg. confidence per-word 0.916347
LOG (lattice-to-ctm-conf[5.1.46~1-0d031]:main():lattice-to-ctm-conf.cc:148) For utterance MM001_si1037, Bayes Risk 5.96138, avg. confidence per-word 0.931138
LOG (lattice-to-ctm-conf[5.1.46~1-0d031]:main():lattice-to-ctm-conf.cc:148) For utterance MM001_si1038, Bayes Risk 5.49938, avg. confidence per-word 0.930752
LOG (lattice-to-ctm-conf[5.1.46~1-0d031]:main():lattice-to-ctm-conf.cc:148) For utterance MM001_si1039, Bayes Risk 3.91456, avg. confidence per-word 0.946385
LOG (lattice-to-ctm-conf[5.1.46~1-0d031]:main():lattice-to-ctm-conf.cc:148) For utterance MM001_si1040, Bayes Risk 3.62046, avg. confidence per-word 0.967266
LOG (lattice-to-ctm-conf[5.1.46~1-0d031]:main():lattice-to-ctm-conf.cc:148) For utterance MM001_si1041, Bayes Risk 8.14343, avg. confidence per-word 0.88888
LOG (lattice-to-ctm-conf[5.1.46~1-0d031]:main():lattice-to-ctm-conf.cc:148) For utterance MM001_si1042, Bayes Risk 3.09965, avg. confidence per-word 0.949387
LOG (lattice-to-ctm-conf[5.1.46~1-0d031]:main():lattice-to-ctm-conf.cc:148) For utterance MM001_si1043, Bayes Risk 2.92412, avg. confidence per-word 0.963934
LOG (lattice-to-ctm-conf[5.1.46~1-0d031]:main():lattice-to-ctm-conf.cc:148) For utterance MM001_si1044, Bayes Risk 5.34899, avg. confidence per-word 0.953112
LOG (lattice-to-ctm-conf[5.1.46~1-0d031]:main():lattice-to-ctm-conf.cc:148) For utterance MM001_si1045, Bayes Risk 5.76697, avg. confidence per-word 0.956659
LOG (lattice-to-ctm-conf[5.1.46~1-0d031]:main():lattice-to-ctm-conf.cc:148) For utterance MM001_si1046, Bayes Risk 2.51582, avg. confidence per-word 0.934796
LOG (lattice-to-ctm-conf[5.1.46~1-0d031]:main():lattice-to-ctm-conf.cc:148) For utterance MM001_si1047, Bayes Risk 1.798, avg. confidence per-word 0.961135
LOG (lattice-to-ctm-conf[5.1.46~1-0d031]:main():lattice-to-ctm-conf.cc:148) For utterance MM001_si1048, Bayes Risk 3.64327, avg. confidence per-word 0.950824
LOG (lattice-to-ctm-conf[5.1.46~1-0d031]:main():lattice-to-ctm-conf.cc:148) For utterance MM001_si1049, Bayes Risk 7.04249, avg. confidence per-word 0.837524
LOG (lattice-to-ctm-conf[5.1.46~1-0d031]:main():lattice-to-ctm-conf.cc:148) For utterance MM001_si1050, Bayes Risk 4.93241, avg. confidence per-word 0.937876
LOG (lattice-to-ctm-conf[5.1.46~1-0d031]:main():lattice-to-ctm-conf.cc:148) For utterance MM001_si1051, Bayes Risk 5.97477, avg. confidence per-word 0.934138
LOG (lattice-to-ctm-conf[5.1.46~1-0d031]:main():lattice-to-ctm-conf.cc:148) For utterance MM001_si1052, Bayes Risk 8.3451, avg. confidence per-word 0.923549
LOG (lattice-to-ctm-conf[5.1.46~1-0d031]:main():lattice-to-ctm-conf.cc:148) For utterance MM001_si1053, Bayes Risk 2.88365, avg. confidence per-word 0.932498
LOG (lattice-to-ctm-conf[5.1.46~1-0d031]:main():lattice-to-ctm-conf.cc:148) For utterance MM001_si1054, Bayes Risk 6.16388, avg. confidence per-word 0.945765
LOG (lattice-to-ctm-conf[5.1.46~1-0d031]:main():lattice-to-ctm-conf.cc:148) For utterance MM001_si1055, Bayes Risk 10.6439, avg. confidence per-word 0.909807
LOG (lattice-to-ctm-conf[5.1.46~1-0d031]:main():lattice-to-ctm-conf.cc:148) For utterance MM001_si1056, Bayes Risk 4.06329, avg. confidence per-word 0.944786
LOG (lattice-to-ctm-conf[5.1.46~1-0d031]:main():lattice-to-ctm-conf.cc:148) For utterance MM001_si1057, Bayes Risk 3.21621, avg. confidence per-word 0.963138
LOG (lattice-to-ctm-conf[5.1.46~1-0d031]:main():lattice-to-ctm-conf.cc:148) For utterance MM001_si1058, Bayes Risk 2.05105, avg. confidence per-word 0.958307
LOG (lattice-to-ctm-conf[5.1.46~1-0d031]:main():lattice-to-ctm-conf.cc:148) For utterance MM001_si1059, Bayes Risk 6.43267, avg. confidence per-word 0.921785
LOG (lattice-to-ctm-conf[5.1.46~1-0d031]:main():lattice-to-ctm-conf.cc:148) For utterance MM001_si1060, Bayes Risk 6.24035, avg. confidence per-word 0.907861
LOG (lattice-to-ctm-conf[5.1.46~1-0d031]:main():lattice-to-ctm-conf.cc:148) For utterance MM001_si1061, Bayes Risk 5.41503, avg. confidence per-word 0.880647
LOG (lattice-to-ctm-conf[5.1.46~1-0d031]:main():lattice-to-ctm-conf.cc:148) For utterance MM001_si1062, Bayes Risk 6.86799, avg. confidence per-word 0.922006
LOG (lattice-to-ctm-conf[5.1.46~1-0d031]:main():lattice-to-ctm-conf.cc:148) For utterance MM001_si1063, Bayes Risk 4.59141, avg. confidence per-word 0.939909
LOG (lattice-to-ctm-conf[5.1.46~1-0d031]:main():lattice-to-ctm-conf.cc:148) For utterance MM001_si1064, Bayes Risk 2.24252, avg. confidence per-word 0.97585
LOG (lattice-to-ctm-conf[5.1.46~1-0d031]:main():lattice-to-ctm-conf.cc:148) For utterance MM001_si1065, Bayes Risk 3.62853, avg. confidence per-word 0.944828
LOG (lattice-to-ctm-conf[5.1.46~1-0d031]:main():lattice-to-ctm-conf.cc:148) For utterance MM001_si1066, Bayes Risk 1.00231, avg. confidence per-word 0.980645
LOG (lattice-to-ctm-conf[5.1.46~1-0d031]:main():lattice-to-ctm-conf.cc:148) For utterance MM001_si1067, Bayes Risk 2.05896, avg. confidence per-word 0.979448
LOG (lattice-to-ctm-conf[5.1.46~1-0d031]:main():lattice-to-ctm-conf.cc:148) For utterance MM001_si1068, Bayes Risk 5.0679, avg. confidence per-word 0.948126
LOG (lattice-to-ctm-conf[5.1.46~1-0d031]:main():lattice-to-ctm-conf.cc:148) For utterance MM001_si1069, Bayes Risk 3.77358, avg. confidence per-word 0.940409
LOG (lattice-to-ctm-conf[5.1.46~1-0d031]:main():lattice-to-ctm-conf.cc:148) For utterance MM001_si1070, Bayes Risk 2.05513, avg. confidence per-word 0.943918
LOG (lattice-to-ctm-conf[5.1.46~1-0d031]:main():lattice-to-ctm-conf.cc:148) For utterance MM001_si1071, Bayes Risk 4.029, avg. confidence per-word 0.948173
LOG (lattice-to-ctm-conf[5.1.46~1-0d031]:main():lattice-to-ctm-conf.cc:148) For utterance MM001_si1072, Bayes Risk 5.76467, avg. confidence per-word 0.847113
LOG (lattice-to-ctm-conf[5.1.46~1-0d031]:main():lattice-to-ctm-conf.cc:148) For utterance MM001_si1073, Bayes Risk 2.04352, avg. confidence per-word 0.961837
LOG (lattice-to-ctm-conf[5.1.46~1-0d031]:main():lattice-to-ctm-conf.cc:148) For utterance MM001_si1074, Bayes Risk 1.56018, avg. confidence per-word 0.950956
LOG (lattice-to-ctm-conf[5.1.46~1-0d031]:main():lattice-to-ctm-conf.cc:148) For utterance MM001_si1075, Bayes Risk 4.31569, avg. confidence per-word 0.925183
LOG (lattice-to-ctm-conf[5.1.46~1-0d031]:main():lattice-to-ctm-conf.cc:148) For utterance MM001_si1076, Bayes Risk 5.43964, avg. confidence per-word 0.933935
LOG (lattice-to-ctm-conf[5.1.46~1-0d031]:main():lattice-to-ctm-conf.cc:148) For utterance MM001_si1077, Bayes Risk 6.92447, avg. confidence per-word 0.923628
LOG (lattice-to-ctm-conf[5.1.46~1-0d031]:main():lattice-to-ctm-conf.cc:148) For utterance MM001_si1078, Bayes Risk 6.60067, avg. confidence per-word 0.9271
LOG (lattice-to-ctm-conf[5.1.46~1-0d031]:main():lattice-to-ctm-conf.cc:148) For utterance MM001_si1079, Bayes Risk 6.398, avg. confidence per-word 0.917787
LOG (lattice-to-ctm-conf[5.1.46~1-0d031]:main():lattice-to-ctm-conf.cc:148) For utterance MM001_si1080, Bayes Risk 2.24381, avg. confidence per-word 0.958922
LOG (lattice-to-ctm-conf[5.1.46~1-0d031]:main():lattice-to-ctm-conf.cc:148) For utterance MM001_si1081, Bayes Risk 2.33967, avg. confidence per-word 0.955171
LOG (lattice-to-ctm-conf[5.1.46~1-0d031]:main():lattice-to-ctm-conf.cc:148) For utterance MM001_si1082, Bayes Risk 2.40811, avg. confidence per-word 0.969454
LOG (lattice-to-ctm-conf[5.1.46~1-0d031]:main():lattice-to-ctm-conf.cc:148) For utterance MM001_si1083, Bayes Risk 1.86207, avg. confidence per-word 0.965407
LOG (lattice-to-ctm-conf[5.1.46~1-0d031]:main():lattice-to-ctm-conf.cc:148) For utterance MM001_si1084, Bayes Risk 4.70687, avg. confidence per-word 0.917232
LOG (lattice-to-ctm-conf[5.1.46~1-0d031]:main():lattice-to-ctm-conf.cc:148) For utterance MM001_si1085, Bayes Risk 4.36231, avg. confidence per-word 0.934928
LOG (lattice-to-ctm-conf[5.1.46~1-0d031]:main():lattice-to-ctm-conf.cc:148) For utterance MM001_si1086, Bayes Risk 4.74948, avg. confidence per-word 0.907353
LOG (lattice-to-ctm-conf[5.1.46~1-0d031]:main():lattice-to-ctm-conf.cc:148) For utterance MM001_si1087, Bayes Risk 4.88003, avg. confidence per-word 0.95447
LOG (lattice-to-ctm-conf[5.1.46~1-0d031]:main():lattice-to-ctm-conf.cc:148) For utterance MM001_si1088, Bayes Risk 4.59399, avg. confidence per-word 0.903493
LOG (lattice-to-ctm-conf[5.1.46~1-0d031]:main():lattice-to-ctm-conf.cc:148) For utterance MM001_si1089, Bayes Risk 0.513677, avg. confidence per-word 0.982217
LOG (lattice-to-ctm-conf[5.1.46~1-0d031]:main():lattice-to-ctm-conf.cc:148) For utterance MM001_si1090, Bayes Risk 7.28033, avg. confidence per-word 0.911756
LOG (lattice-to-ctm-conf[5.1.46~1-0d031]:main():lattice-to-ctm-conf.cc:148) For utterance MM001_si1091, Bayes Risk 8.51592, avg. confidence per-word 0.924491
LOG (lattice-to-ctm-conf[5.1.46~1-0d031]:main():lattice-to-ctm-conf.cc:148) For utterance MM001_si1092, Bayes Risk 1.70593, avg. confidence per-word 0.956921
LOG (lattice-to-ctm-conf[5.1.46~1-0d031]:main():lattice-to-ctm-conf.cc:148) For utterance MM001_si1093, Bayes Risk 3.34643, avg. confidence per-word 0.913048
LOG (lattice-to-ctm-conf[5.1.46~1-0d031]:main():lattice-to-ctm-conf.cc:148) For utterance MM001_si1094, Bayes Risk 4.5836, avg. confidence per-word 0.925947
LOG (lattice-to-ctm-conf[5.1.46~1-0d031]:main():lattice-to-ctm-conf.cc:148) For utterance MM001_si1095, Bayes Risk 0.758684, avg. confidence per-word 0.970315
LOG (lattice-to-ctm-conf[5.1.46~1-0d031]:main():lattice-to-ctm-conf.cc:148) For utterance MM001_si1096, Bayes Risk 4.17807, avg. confidence per-word 0.944495
LOG (lattice-to-ctm-conf[5.1.46~1-0d031]:main():lattice-to-ctm-conf.cc:148) For utterance MM001_si1097, Bayes Risk 4.32015, avg. confidence per-word 0.951428
LOG (lattice-to-ctm-conf[5.1.46~1-0d031]:main():lattice-to-ctm-conf.cc:148) For utterance MM001_si1098, Bayes Risk 4.18475, avg. confidence per-word 0.9644
LOG (lattice-to-ctm-conf[5.1.46~1-0d031]:main():lattice-to-ctm-conf.cc:148) For utterance MM001_si1099, Bayes Risk 2.69933, avg. confidence per-word 0.958667
LOG (lattice-to-ctm-conf[5.1.46~1-0d031]:main():lattice-to-ctm-conf.cc:148) For utterance MM001_si1100, Bayes Risk 3.03177, avg. confidence per-word 0.946106
LOG (lattice-to-ctm-conf[5.1.46~1-0d031]:main():lattice-to-ctm-conf.cc:148) For utterance MM001_si1101, Bayes Risk 2.64953, avg. confidence per-word 0.915774
LOG (lattice-to-ctm-conf[5.1.46~1-0d031]:main():lattice-to-ctm-conf.cc:148) For utterance MM001_si1102, Bayes Risk 6.81776, avg. confidence per-word 0.927339
LOG (lattice-to-ctm-conf[5.1.46~1-0d031]:main():lattice-to-ctm-conf.cc:148) For utterance MM001_si1103, Bayes Risk 8.19275, avg. confidence per-word 0.918435
LOG (lattice-to-ctm-conf[5.1.46~1-0d031]:main():lattice-to-ctm-conf.cc:148) For utterance MM001_si1104, Bayes Risk 6.77265, avg. confidence per-word 0.920538
LOG (lattice-to-ctm-conf[5.1.46~1-0d031]:main():lattice-to-ctm-conf.cc:148) For utterance MM001_si1105, Bayes Risk 5.44658, avg. confidence per-word 0.904158
LOG (lattice-to-ctm-conf[5.1.46~1-0d031]:main():lattice-to-ctm-conf.cc:148) For utterance MM001_si1106, Bayes Risk 6.4716, avg. confidence per-word 0.9386
LOG (lattice-to-ctm-conf[5.1.46~1-0d031]:main():lattice-to-ctm-conf.cc:148) For utterance MM001_si1107, Bayes Risk 3.46217, avg. confidence per-word 0.941898
LOG (lattice-to-ctm-conf[5.1.46~1-0d031]:main():lattice-to-ctm-conf.cc:148) For utterance MM001_si1108, Bayes Risk 4.65405, avg. confidence per-word 0.940507
LOG (lattice-to-ctm-conf[5.1.46~1-0d031]:main():lattice-to-ctm-conf.cc:148) For utterance MM001_si1109, Bayes Risk 7.22596, avg. confidence per-word 0.861439
LOG (lattice-to-ctm-conf[5.1.46~1-0d031]:main():lattice-to-ctm-conf.cc:148) For utterance MM001_si1110, Bayes Risk 5.67191, avg. confidence per-word 0.933641
LOG (lattice-to-ctm-conf[5.1.46~1-0d031]:main():lattice-to-ctm-conf.cc:148) For utterance MM001_si1111, Bayes Risk 1.80701, avg. confidence per-word 0.912545
LOG (lattice-to-ctm-conf[5.1.46~1-0d031]:main():lattice-to-ctm-conf.cc:148) For utterance MM001_si1112, Bayes Risk 3.86888, avg. confidence per-word 0.966936
LOG (lattice-to-ctm-conf[5.1.46~1-0d031]:main():lattice-to-ctm-conf.cc:148) For utterance MM001_si1113, Bayes Risk 11.8418, avg. confidence per-word 0.882533
LOG (lattice-to-ctm-conf[5.1.46~1-0d031]:main():lattice-to-ctm-conf.cc:148) For utterance MM001_si1114, Bayes Risk 1.79598, avg. confidence per-word 0.92181
LOG (lattice-to-ctm-conf[5.1.46~1-0d031]:main():lattice-to-ctm-conf.cc:148) For utterance MM001_si1115, Bayes Risk 4.98625, avg. confidence per-word 0.953505
LOG (lattice-to-ctm-conf[5.1.46~1-0d031]:main():lattice-to-ctm-conf.cc:148) For utterance MM001_si1116, Bayes Risk 4.50173, avg. confidence per-word 0.920473
LOG (lattice-to-ctm-conf[5.1.46~1-0d031]:main():lattice-to-ctm-conf.cc:148) For utterance MM001_si1117, Bayes Risk 2.05036, avg. confidence per-word 0.965956
LOG (lattice-to-ctm-conf[5.1.46~1-0d031]:main():lattice-to-ctm-conf.cc:148) For utterance MM001_si1118, Bayes Risk 2.58789, avg. confidence per-word 0.953402
LOG (lattice-to-ctm-conf[5.1.46~1-0d031]:main():lattice-to-ctm-conf.cc:148) For utterance MM001_si1119, Bayes Risk 3.37087, avg. confidence per-word 0.939942
LOG (lattice-to-ctm-conf[5.1.46~1-0d031]:main():lattice-to-ctm-conf.cc:148) For utterance MM001_si1120, Bayes Risk 8.28347, avg. confidence per-word 0.910177
LOG (lattice-to-ctm-conf[5.1.46~1-0d031]:main():lattice-to-ctm-conf.cc:148) For utterance MM001_si1121, Bayes Risk 6.83513, avg. confidence per-word 0.905202
LOG (lattice-to-ctm-conf[5.1.46~1-0d031]:main():lattice-to-ctm-conf.cc:148) For utterance MM001_si1122, Bayes Risk 3.71239, avg. confidence per-word 0.944178
LOG (lattice-to-ctm-conf[5.1.46~1-0d031]:main():lattice-to-ctm-conf.cc:148) For utterance MM001_si1123, Bayes Risk 4.67516, avg. confidence per-word 0.963194
LOG (lattice-to-ctm-conf[5.1.46~1-0d031]:main():lattice-to-ctm-conf.cc:148) For utterance MM001_si1124, Bayes Risk 4.38214, avg. confidence per-word 0.952115
LOG (lattice-to-ctm-conf[5.1.46~1-0d031]:main():lattice-to-ctm-conf.cc:148) For utterance MM001_si1125, Bayes Risk 2.36435, avg. confidence per-word 0.953052
LOG (lattice-to-ctm-conf[5.1.46~1-0d031]:main():lattice-to-ctm-conf.cc:148) For utterance MM001_si1126, Bayes Risk 3.83679, avg. confidence per-word 0.885719
LOG (lattice-to-ctm-conf[5.1.46~1-0d031]:main():lattice-to-ctm-conf.cc:148) For utterance MM001_si1127, Bayes Risk 9.42004, avg. confidence per-word 0.885278
LOG (lattice-to-ctm-conf[5.1.46~1-0d031]:main():lattice-to-ctm-conf.cc:148) For utterance MM001_si1128, Bayes Risk 2.30196, avg. confidence per-word 0.957622
LOG (lattice-to-ctm-conf[5.1.46~1-0d031]:main():lattice-to-ctm-conf.cc:148) For utterance MM001_si1129, Bayes Risk 6.85854, avg. confidence per-word 0.934526
LOG (lattice-to-ctm-conf[5.1.46~1-0d031]:main():lattice-to-ctm-conf.cc:148) For utterance MM001_si1130, Bayes Risk 5.11432, avg. confidence per-word 0.921821
LOG (lattice-to-ctm-conf[5.1.46~1-0d031]:main():lattice-to-ctm-conf.cc:148) For utterance MM001_si1131, Bayes Risk 3.4208, avg. confidence per-word 0.928934
LOG (lattice-to-ctm-conf[5.1.46~1-0d031]:main():lattice-to-ctm-conf.cc:148) For utterance MM001_si1132, Bayes Risk 3.51418, avg. confidence per-word 0.958559
LOG (lattice-to-ctm-conf[5.1.46~1-0d031]:main():lattice-to-ctm-conf.cc:148) For utterance MM001_si1133, Bayes Risk 3.86483, avg. confidence per-word 0.900245
LOG (lattice-to-ctm-conf[5.1.46~1-0d031]:main():lattice-to-ctm-conf.cc:148) For utterance MM001_si1134, Bayes Risk 4.49778, avg. confidence per-word 0.95858
LOG (lattice-to-ctm-conf[5.1.46~1-0d031]:main():lattice-to-ctm-conf.cc:148) For utterance MM001_si1135, Bayes Risk 5.46187, avg. confidence per-word 0.884514
LOG (lattice-to-ctm-conf[5.1.46~1-0d031]:main():lattice-to-ctm-conf.cc:148) For utterance MM001_si1136, Bayes Risk 8.27468, avg. confidence per-word 0.916364
LOG (lattice-to-ctm-conf[5.1.46~1-0d031]:main():lattice-to-ctm-conf.cc:148) For utterance MM001_si1137, Bayes Risk 2.45931, avg. confidence per-word 0.972755
LOG (lattice-to-ctm-conf[5.1.46~1-0d031]:main():lattice-to-ctm-conf.cc:148) For utterance MM001_si1138, Bayes Risk 10.0419, avg. confidence per-word 0.908135
LOG (lattice-to-ctm-conf[5.1.46~1-0d031]:main():lattice-to-ctm-conf.cc:148) For utterance MM001_si1139, Bayes Risk 6.31717, avg. confidence per-word 0.941033
LOG (lattice-to-ctm-conf[5.1.46~1-0d031]:main():lattice-to-ctm-conf.cc:148) For utterance MM001_si1140, Bayes Risk 3.15442, avg. confidence per-word 0.940417
LOG (lattice-to-ctm-conf[5.1.46~1-0d031]:main():lattice-to-ctm-conf.cc:148) For utterance MM001_si1141, Bayes Risk 6.74944, avg. confidence per-word 0.939235
LOG (lattice-to-ctm-conf[5.1.46~1-0d031]:main():lattice-to-ctm-conf.cc:148) For utterance MM001_si1142, Bayes Risk 6.60713, avg. confidence per-word 0.94108
LOG (lattice-to-ctm-conf[5.1.46~1-0d031]:main():lattice-to-ctm-conf.cc:148) For utterance MM001_si1143, Bayes Risk 2.45544, avg. confidence per-word 0.930026
LOG (lattice-to-ctm-conf[5.1.46~1-0d031]:main():lattice-to-ctm-conf.cc:148) For utterance MM001_si1144, Bayes Risk 3.17962, avg. confidence per-word 0.923049
LOG (lattice-to-ctm-conf[5.1.46~1-0d031]:main():lattice-to-ctm-conf.cc:148) For utterance MM001_si1145, Bayes Risk 4.42339, avg. confidence per-word 0.973685
LOG (lattice-to-ctm-conf[5.1.46~1-0d031]:main():lattice-to-ctm-conf.cc:148) For utterance MM001_si1146, Bayes Risk 4.69479, avg. confidence per-word 0.973842
LOG (lattice-to-ctm-conf[5.1.46~1-0d031]:main():lattice-to-ctm-conf.cc:148) For utterance MM001_si1147, Bayes Risk 1.9835, avg. confidence per-word 0.957718
LOG (lattice-to-ctm-conf[5.1.46~1-0d031]:main():lattice-to-ctm-conf.cc:148) For utterance MM001_si1148, Bayes Risk 2.03489, avg. confidence per-word 0.964532
LOG (lattice-to-ctm-conf[5.1.46~1-0d031]:main():lattice-to-ctm-conf.cc:148) For utterance MM001_si1149, Bayes Risk 4.11873, avg. confidence per-word 0.949519
LOG (lattice-to-ctm-conf[5.1.46~1-0d031]:main():lattice-to-ctm-conf.cc:148) For utterance MM001_si1150, Bayes Risk 9.22449, avg. confidence per-word 0.871972
LOG (lattice-to-ctm-conf[5.1.46~1-0d031]:main():lattice-to-ctm-conf.cc:148) For utterance MM001_si1151, Bayes Risk 3.55802, avg. confidence per-word 0.885957
LOG (lattice-to-ctm-conf[5.1.46~1-0d031]:main():lattice-to-ctm-conf.cc:148) For utterance MM001_si1152, Bayes Risk 5.33197, avg. confidence per-word 0.925712
LOG (lattice-to-ctm-conf[5.1.46~1-0d031]:main():lattice-to-ctm-conf.cc:148) For utterance MM001_si1153, Bayes Risk 6.42861, avg. confidence per-word 0.942954
LOG (lattice-to-ctm-conf[5.1.46~1-0d031]:main():lattice-to-ctm-conf.cc:148) For utterance MM001_si1154, Bayes Risk 7.06811, avg. confidence per-word 0.883847
LOG (lattice-to-ctm-conf[5.1.46~1-0d031]:main():lattice-to-ctm-conf.cc:148) For utterance MM001_si1155, Bayes Risk 4.6166, avg. confidence per-word 0.949984
LOG (lattice-to-ctm-conf[5.1.46~1-0d031]:main():lattice-to-ctm-conf.cc:148) For utterance MM001_si1156, Bayes Risk 7.64141, avg. confidence per-word 0.909709
LOG (lattice-to-ctm-conf[5.1.46~1-0d031]:main():lattice-to-ctm-conf.cc:148) For utterance MM001_si1157, Bayes Risk 7.42662, avg. confidence per-word 0.919214
LOG (lattice-to-ctm-conf[5.1.46~1-0d031]:main():lattice-to-ctm-conf.cc:148) For utterance MM001_si1158, Bayes Risk 0.761343, avg. confidence per-word 0.979492
LOG (lattice-to-ctm-conf[5.1.46~1-0d031]:main():lattice-to-ctm-conf.cc:148) For utterance MM001_si1159, Bayes Risk 3.78223, avg. confidence per-word 0.907342
LOG (lattice-to-ctm-conf[5.1.46~1-0d031]:main():lattice-to-ctm-conf.cc:148) For utterance MM001_si1160, Bayes Risk 4.13826, avg. confidence per-word 0.944543
LOG (lattice-to-ctm-conf[5.1.46~1-0d031]:main():lattice-to-ctm-conf.cc:148) For utterance MM001_si1161, Bayes Risk 2.40001, avg. confidence per-word 0.926475
LOG (lattice-to-ctm-conf[5.1.46~1-0d031]:main():lattice-to-ctm-conf.cc:148) For utterance MM001_si1162, Bayes Risk 3.28828, avg. confidence per-word 0.930793
LOG (lattice-to-ctm-conf[5.1.46~1-0d031]:main():lattice-to-ctm-conf.cc:148) For utterance MM001_si1163, Bayes Risk 7.96905, avg. confidence per-word 0.912099
LOG (lattice-to-ctm-conf[5.1.46~1-0d031]:main():lattice-to-ctm-conf.cc:148) For utterance MM001_si1164, Bayes Risk 3.6988, avg. confidence per-word 0.921046
LOG (lattice-to-ctm-conf[5.1.46~1-0d031]:main():lattice-to-ctm-conf.cc:148) For utterance MM001_si1165, Bayes Risk 5.28093, avg. confidence per-word 0.94984
LOG (lattice-to-ctm-conf[5.1.46~1-0d031]:main():lattice-to-ctm-conf.cc:148) For utterance MM001_si1166, Bayes Risk 8.7509, avg. confidence per-word 0.892719
LOG (lattice-to-ctm-conf[5.1.46~1-0d031]:main():lattice-to-ctm-conf.cc:148) For utterance MM001_si1167, Bayes Risk 1.80442, avg. confidence per-word 0.936685
LOG (lattice-to-ctm-conf[5.1.46~1-0d031]:main():lattice-to-ctm-conf.cc:148) For utterance MM001_si1168, Bayes Risk 6.37619, avg. confidence per-word 0.926207
LOG (lattice-to-ctm-conf[5.1.46~1-0d031]:main():lattice-to-ctm-conf.cc:148) For utterance MM001_si1169, Bayes Risk 3.13692, avg. confidence per-word 0.883301
LOG (lattice-to-ctm-conf[5.1.46~1-0d031]:main():lattice-to-ctm-conf.cc:148) For utterance MM001_si1170, Bayes Risk 2.10815, avg. confidence per-word 0.94168
LOG (lattice-to-ctm-conf[5.1.46~1-0d031]:main():lattice-to-ctm-conf.cc:148) For utterance MM001_si1171, Bayes Risk 2.69287, avg. confidence per-word 0.932551
LOG (lattice-to-ctm-conf[5.1.46~1-0d031]:main():lattice-to-ctm-conf.cc:148) For utterance MM001_si1172, Bayes Risk 3.84107, avg. confidence per-word 0.946762
LOG (lattice-to-ctm-conf[5.1.46~1-0d031]:main():lattice-to-ctm-conf.cc:148) For utterance MM001_si1173, Bayes Risk 1.14891, avg. confidence per-word 0.929029
LOG (lattice-to-ctm-conf[5.1.46~1-0d031]:main():lattice-to-ctm-conf.cc:148) For utterance MM001_si1174, Bayes Risk 3.05841, avg. confidence per-word 0.961103
LOG (lattice-to-ctm-conf[5.1.46~1-0d031]:main():lattice-to-ctm-conf.cc:148) For utterance MM001_si1175, Bayes Risk 1.86473, avg. confidence per-word 0.956473
LOG (lattice-to-ctm-conf[5.1.46~1-0d031]:main():lattice-to-ctm-conf.cc:148) For utterance MM001_si1176, Bayes Risk 6.66294, avg. confidence per-word 0.914693
LOG (lattice-to-ctm-conf[5.1.46~1-0d031]:main():lattice-to-ctm-conf.cc:148) For utterance MM001_si1177, Bayes Risk 4.83695, avg. confidence per-word 0.931049
LOG (lattice-to-ctm-conf[5.1.46~1-0d031]:main():lattice-to-ctm-conf.cc:148) For utterance MM001_si1178, Bayes Risk 3.19379, avg. confidence per-word 0.962132
LOG (lattice-to-ctm-conf[5.1.46~1-0d031]:main():lattice-to-ctm-conf.cc:148) For utterance MM001_si1179, Bayes Risk 2.664, avg. confidence per-word 0.899111
LOG (lattice-to-ctm-conf[5.1.46~1-0d031]:main():lattice-to-ctm-conf.cc:148) For utterance MM001_si1180, Bayes Risk 3.72647, avg. confidence per-word 0.957707
LOG (lattice-to-ctm-conf[5.1.46~1-0d031]:main():lattice-to-ctm-conf.cc:148) For utterance MM001_si1181, Bayes Risk 6.44218, avg. confidence per-word 0.91028
LOG (lattice-to-ctm-conf[5.1.46~1-0d031]:main():lattice-to-ctm-conf.cc:148) For utterance MM001_si1182, Bayes Risk 2.0844, avg. confidence per-word 0.945615
LOG (lattice-to-ctm-conf[5.1.46~1-0d031]:main():lattice-to-ctm-conf.cc:148) For utterance MM001_si1183, Bayes Risk 4.38942, avg. confidence per-word 0.945969
LOG (lattice-to-ctm-conf[5.1.46~1-0d031]:main():lattice-to-ctm-conf.cc:148) For utterance MM001_si1184, Bayes Risk 9.5426, avg. confidence per-word 0.948081
LOG (lattice-to-ctm-conf[5.1.46~1-0d031]:main():lattice-to-ctm-conf.cc:148) For utterance MM001_si1185, Bayes Risk 4.12804, avg. confidence per-word 0.910672
LOG (lattice-to-ctm-conf[5.1.46~1-0d031]:main():lattice-to-ctm-conf.cc:148) For utterance MM001_si1186, Bayes Risk 6.02419, avg. confidence per-word 0.939359
LOG (lattice-to-ctm-conf[5.1.46~1-0d031]:main():lattice-to-ctm-conf.cc:148) For utterance MM001_si1187, Bayes Risk 3.85418, avg. confidence per-word 0.91075
LOG (lattice-to-ctm-conf[5.1.46~1-0d031]:main():lattice-to-ctm-conf.cc:148) For utterance MM001_si1188, Bayes Risk 2.29406, avg. confidence per-word 0.928421
LOG (lattice-to-ctm-conf[5.1.46~1-0d031]:main():lattice-to-ctm-conf.cc:148) For utterance MM001_si1189, Bayes Risk 3.68774, avg. confidence per-word 0.920439
LOG (lattice-to-ctm-conf[5.1.46~1-0d031]:main():lattice-to-ctm-conf.cc:148) For utterance MM001_si1190, Bayes Risk 5.35995, avg. confidence per-word 0.926063
LOG (lattice-to-ctm-conf[5.1.46~1-0d031]:main():lattice-to-ctm-conf.cc:148) For utterance MM001_si1191, Bayes Risk 3.28869, avg. confidence per-word 0.925006
LOG (lattice-to-ctm-conf[5.1.46~1-0d031]:main():lattice-to-ctm-conf.cc:148) For utterance MM001_si1192, Bayes Risk 3.03175, avg. confidence per-word 0.877656
LOG (lattice-to-ctm-conf[5.1.46~1-0d031]:main():lattice-to-ctm-conf.cc:148) For utterance MM001_si1193, Bayes Risk 3.39671, avg. confidence per-word 0.934723
LOG (lattice-to-ctm-conf[5.1.46~1-0d031]:main():lattice-to-ctm-conf.cc:148) For utterance MM001_si1194, Bayes Risk 3.32588, avg. confidence per-word 0.954803
LOG (lattice-to-ctm-conf[5.1.46~1-0d031]:main():lattice-to-ctm-conf.cc:148) For utterance MM001_si1195, Bayes Risk 6.3363, avg. confidence per-word 0.899282
LOG (lattice-to-ctm-conf[5.1.46~1-0d031]:main():lattice-to-ctm-conf.cc:148) For utterance MM001_si1196, Bayes Risk 9.4755, avg. confidence per-word 0.922884
LOG (lattice-to-ctm-conf[5.1.46~1-0d031]:main():lattice-to-ctm-conf.cc:148) For utterance MM001_si1197, Bayes Risk 4.49106, avg. confidence per-word 0.927603
LOG (lattice-to-ctm-conf[5.1.46~1-0d031]:main():lattice-to-ctm-conf.cc:148) For utterance MM001_si1200, Bayes Risk 2.82428, avg. confidence per-word 0.938338
LOG (lattice-to-ctm-conf[5.1.46~1-0d031]:main():lattice-to-ctm-conf.cc:148) For utterance MM001_si1201, Bayes Risk 8.87508, avg. confidence per-word 0.905927
LOG (lattice-to-ctm-conf[5.1.46~1-0d031]:main():lattice-to-ctm-conf.cc:148) For utterance MM001_si1202, Bayes Risk 6.42314, avg. confidence per-word 0.942437
LOG (lattice-to-ctm-conf[5.1.46~1-0d031]:main():lattice-to-ctm-conf.cc:148) For utterance MM001_si1203, Bayes Risk 2.57399, avg. confidence per-word 0.956321
LOG (lattice-to-ctm-conf[5.1.46~1-0d031]:main():lattice-to-ctm-conf.cc:148) For utterance MM001_si1205, Bayes Risk 2.87539, avg. confidence per-word 0.940498
LOG (lattice-to-ctm-conf[5.1.46~1-0d031]:main():lattice-to-ctm-conf.cc:148) For utterance MM001_si1206, Bayes Risk 10.2951, avg. confidence per-word 0.868595
LOG (lattice-to-ctm-conf[5.1.46~1-0d031]:main():lattice-to-ctm-conf.cc:148) For utterance MM001_si1207, Bayes Risk 4.70292, avg. confidence per-word 0.934961
LOG (lattice-to-ctm-conf[5.1.46~1-0d031]:main():lattice-to-ctm-conf.cc:148) For utterance MM001_si1208, Bayes Risk 3.91975, avg. confidence per-word 0.929269
LOG (lattice-to-ctm-conf[5.1.46~1-0d031]:main():lattice-to-ctm-conf.cc:148) For utterance MM001_si1209, Bayes Risk 3.50092, avg. confidence per-word 0.948628
LOG (lattice-to-ctm-conf[5.1.46~1-0d031]:main():lattice-to-ctm-conf.cc:148) For utterance MM001_si1210, Bayes Risk 3.65359, avg. confidence per-word 0.940625
LOG (lattice-to-ctm-conf[5.1.46~1-0d031]:main():lattice-to-ctm-conf.cc:148) For utterance MM001_si1211, Bayes Risk 4.15965, avg. confidence per-word 0.889896
LOG (lattice-to-ctm-conf[5.1.46~1-0d031]:main():lattice-to-ctm-conf.cc:148) For utterance MM001_si1212, Bayes Risk 5.6494, avg. confidence per-word 0.916161
LOG (lattice-to-ctm-conf[5.1.46~1-0d031]:main():lattice-to-ctm-conf.cc:148) For utterance MM001_si1215, Bayes Risk 4.80215, avg. confidence per-word 0.949033
LOG (lattice-to-ctm-conf[5.1.46~1-0d031]:main():lattice-to-ctm-conf.cc:148) For utterance MM001_si1216, Bayes Risk 2.84391, avg. confidence per-word 0.910045
LOG (lattice-to-ctm-conf[5.1.46~1-0d031]:main():lattice-to-ctm-conf.cc:148) For utterance MM001_si1221, Bayes Risk 10.1182, avg. confidence per-word 0.868645
LOG (lattice-to-ctm-conf[5.1.46~1-0d031]:main():lattice-to-ctm-conf.cc:148) For utterance MM001_sx115, Bayes Risk 5.00568, avg. confidence per-word 0.925602
LOG (lattice-to-ctm-conf[5.1.46~1-0d031]:main():lattice-to-ctm-conf.cc:148) For utterance MM001_sx118, Bayes Risk 4.27067, avg. confidence per-word 0.912908
LOG (lattice-to-ctm-conf[5.1.46~1-0d031]:main():lattice-to-ctm-conf.cc:148) For utterance MM001_sx119, Bayes Risk 2.20646, avg. confidence per-word 0.968616
LOG (lattice-to-ctm-conf[5.1.46~1-0d031]:main():lattice-to-ctm-conf.cc:148) For utterance MM001_sx124, Bayes Risk 2.24914, avg. confidence per-word 0.978818
LOG (lattice-to-ctm-conf[5.1.46~1-0d031]:main():lattice-to-ctm-conf.cc:148) For utterance MM001_sx126, Bayes Risk 3.73501, avg. confidence per-word 0.953823
LOG (lattice-to-ctm-conf[5.1.46~1-0d031]:main():lattice-to-ctm-conf.cc:148) For utterance MM001_sx133, Bayes Risk 4.37585, avg. confidence per-word 0.924066
LOG (lattice-to-ctm-conf[5.1.46~1-0d031]:main():lattice-to-ctm-conf.cc:148) For utterance MM001_sx134, Bayes Risk 2.66749, avg. confidence per-word 0.970102
LOG (lattice-to-ctm-conf[5.1.46~1-0d031]:main():lattice-to-ctm-conf.cc:148) For utterance MM001_sx137, Bayes Risk 4.50734, avg. confidence per-word 0.933522
LOG (lattice-to-ctm-conf[5.1.46~1-0d031]:main():lattice-to-ctm-conf.cc:148) For utterance MM001_sx138, Bayes Risk 4.11815, avg. confidence per-word 0.955485
LOG (lattice-to-ctm-conf[5.1.46~1-0d031]:main():lattice-to-ctm-conf.cc:148) For utterance MM001_sx139, Bayes Risk 4.60013, avg. confidence per-word 0.919216
LOG (lattice-to-ctm-conf[5.1.46~1-0d031]:main():lattice-to-ctm-conf.cc:148) For utterance MM001_sx140, Bayes Risk 5.67247, avg. confidence per-word 0.889655
LOG (lattice-to-ctm-conf[5.1.46~1-0d031]:main():lattice-to-ctm-conf.cc:148) For utterance MM001_sx143, Bayes Risk 4.37737, avg. confidence per-word 0.907262
LOG (lattice-to-ctm-conf[5.1.46~1-0d031]:main():lattice-to-ctm-conf.cc:148) For utterance MM001_sx150, Bayes Risk 3.39662, avg. confidence per-word 0.918629
LOG (lattice-to-ctm-conf[5.1.46~1-0d031]:main():lattice-to-ctm-conf.cc:148) For utterance MM001_sx151, Bayes Risk 5.60775, avg. confidence per-word 0.911064
LOG (lattice-to-ctm-conf[5.1.46~1-0d031]:main():lattice-to-ctm-conf.cc:148) For utterance MM001_sx152, Bayes Risk 3.40548, avg. confidence per-word 0.942298
LOG (lattice-to-ctm-conf[5.1.46~1-0d031]:main():lattice-to-ctm-conf.cc:148) For utterance MM001_sx153, Bayes Risk 7.76166, avg. confidence per-word 0.876673
LOG (lattice-to-ctm-conf[5.1.46~1-0d031]:main():lattice-to-ctm-conf.cc:148) For utterance MM001_sx154, Bayes Risk 3.53022, avg. confidence per-word 0.927611
LOG (lattice-to-ctm-conf[5.1.46~1-0d031]:main():lattice-to-ctm-conf.cc:148) For utterance MM001_sx155, Bayes Risk 4.778, avg. confidence per-word 0.931838
LOG (lattice-to-ctm-conf[5.1.46~1-0d031]:main():lattice-to-ctm-conf.cc:148) For utterance MM001_sx156, Bayes Risk 4.81243, avg. confidence per-word 0.917797
LOG (lattice-to-ctm-conf[5.1.46~1-0d031]:main():lattice-to-ctm-conf.cc:148) For utterance MM001_sx157, Bayes Risk 3.23073, avg. confidence per-word 0.91282
LOG (lattice-to-ctm-conf[5.1.46~1-0d031]:main():lattice-to-ctm-conf.cc:148) For utterance MM001_sx158, Bayes Risk 0.842134, avg. confidence per-word 0.973099
LOG (lattice-to-ctm-conf[5.1.46~1-0d031]:main():lattice-to-ctm-conf.cc:148) For utterance MM001_sx159, Bayes Risk 5.3848, avg. confidence per-word 0.941679
LOG (lattice-to-ctm-conf[5.1.46~1-0d031]:main():lattice-to-ctm-conf.cc:148) For utterance MM001_sx160, Bayes Risk 7.90885, avg. confidence per-word 0.884594
LOG (lattice-to-ctm-conf[5.1.46~1-0d031]:main():lattice-to-ctm-conf.cc:148) For utterance MM001_sx161, Bayes Risk 6.44132, avg. confidence per-word 0.910547
LOG (lattice-to-ctm-conf[5.1.46~1-0d031]:main():lattice-to-ctm-conf.cc:148) For utterance MM001_sx162, Bayes Risk 4.36839, avg. confidence per-word 0.904493
LOG (lattice-to-ctm-conf[5.1.46~1-0d031]:main():lattice-to-ctm-conf.cc:148) For utterance MM001_sx163, Bayes Risk 3.97122, avg. confidence per-word 0.921845
LOG (lattice-to-ctm-conf[5.1.46~1-0d031]:main():lattice-to-ctm-conf.cc:148) For utterance MM001_sx164, Bayes Risk 4.10577, avg. confidence per-word 0.946159
LOG (lattice-to-ctm-conf[5.1.46~1-0d031]:main():lattice-to-ctm-conf.cc:148) For utterance MM001_sx165, Bayes Risk 5.23975, avg. confidence per-word 0.896462
LOG (lattice-to-ctm-conf[5.1.46~1-0d031]:main():lattice-to-ctm-conf.cc:148) For utterance MM001_sx166, Bayes Risk 6.75945, avg. confidence per-word 0.906381
LOG (lattice-to-ctm-conf[5.1.46~1-0d031]:main():lattice-to-ctm-conf.cc:148) For utterance MM001_sx167, Bayes Risk 5.04533, avg. confidence per-word 0.920688
LOG (lattice-to-ctm-conf[5.1.46~1-0d031]:main():lattice-to-ctm-conf.cc:148) For utterance MM001_sx168, Bayes Risk 3.1476, avg. confidence per-word 0.955892
LOG (lattice-to-ctm-conf[5.1.46~1-0d031]:main():lattice-to-ctm-conf.cc:148) For utterance MM001_sx169, Bayes Risk 4.04933, avg. confidence per-word 0.918797
LOG (lattice-to-ctm-conf[5.1.46~1-0d031]:main():lattice-to-ctm-conf.cc:148) For utterance MM001_sx170, Bayes Risk 6.65769, avg. confidence per-word 0.909126
LOG (lattice-to-ctm-conf[5.1.46~1-0d031]:main():lattice-to-ctm-conf.cc:148) For utterance MM001_sx171, Bayes Risk 4.31303, avg. confidence per-word 0.952096
LOG (lattice-to-ctm-conf[5.1.46~1-0d031]:main():lattice-to-ctm-conf.cc:148) For utterance MM001_sx172, Bayes Risk 7.02815, avg. confidence per-word 0.846671
LOG (lattice-to-ctm-conf[5.1.46~1-0d031]:main():lattice-to-ctm-conf.cc:148) For utterance MM001_sx173, Bayes Risk 5.0367, avg. confidence per-word 0.914161
LOG (lattice-to-ctm-conf[5.1.46~1-0d031]:main():lattice-to-ctm-conf.cc:148) For utterance MM001_sx174, Bayes Risk 4.39148, avg. confidence per-word 0.938613
LOG (lattice-to-ctm-conf[5.1.46~1-0d031]:main():lattice-to-ctm-conf.cc:148) For utterance MM001_sx175, Bayes Risk 5.48768, avg. confidence per-word 0.938289
LOG (lattice-to-ctm-conf[5.1.46~1-0d031]:main():lattice-to-ctm-conf.cc:148) For utterance MM001_sx176, Bayes Risk 6.28038, avg. confidence per-word 0.924862
LOG (lattice-to-ctm-conf[5.1.46~1-0d031]:main():lattice-to-ctm-conf.cc:148) For utterance MM001_sx177, Bayes Risk 2.65136, avg. confidence per-word 0.915281
LOG (lattice-to-ctm-conf[5.1.46~1-0d031]:main():lattice-to-ctm-conf.cc:148) For utterance MM001_sx178, Bayes Risk 5.45258, avg. confidence per-word 0.92307
LOG (lattice-to-ctm-conf[5.1.46~1-0d031]:main():lattice-to-ctm-conf.cc:148) For utterance MM001_sx179, Bayes Risk 5.44711, avg. confidence per-word 0.929559
LOG (lattice-to-ctm-conf[5.1.46~1-0d031]:main():lattice-to-ctm-conf.cc:148) For utterance MM001_sx180, Bayes Risk 4.30086, avg. confidence per-word 0.934802
LOG (lattice-to-ctm-conf[5.1.46~1-0d031]:main():lattice-to-ctm-conf.cc:148) For utterance MM001_sx181, Bayes Risk 5.23936, avg. confidence per-word 0.911282
LOG (lattice-align-phones[5.1.46~1-0d031]:main():lattice-align-phones.cc:104) Successfully aligned 323 lattices; 0 had errors.
LOG (lattice-to-ctm-conf[5.1.46~1-0d031]:main():lattice-to-ctm-conf.cc:148) For utterance MM001_sx182, Bayes Risk 2.06754, avg. confidence per-word 0.975348
LOG (lattice-to-ctm-conf[5.1.46~1-0d031]:main():lattice-to-ctm-conf.cc:157) Done 323 lattices.
LOG (lattice-to-ctm-conf[5.1.46~1-0d031]:main():lattice-to-ctm-conf.cc:158) Overall average Bayes Risk per sentence is 4.13688 and per word, 0.115091
# Accounting: time=4 threads=1
# Ended (code 0) at Tue Apr 18 15:41:16 CST 2017, elapsed time 4 seconds
