# lattice-align-phones exp/dnn4_pretrain-dbn_dnn/decode_test/../final.mdl "ark:gunzip -c exp/dnn4_pretrain-dbn_dnn/decode_test/lat.1.gz|" ark:- | lattice-to-ctm-conf --acoustic-scale=.16666666 --lm-scale=1.0 ark:- exp/dnn4_pretrain-dbn_dnn/decode_test/scoring/6.1.ctm 
# Started at Tue Apr 18 15:40:50 CST 2017
#
lattice-to-ctm-conf --acoustic-scale=.16666666 --lm-scale=1.0 ark:- exp/dnn4_pretrain-dbn_dnn/decode_test/scoring/6.1.ctm 
lattice-align-phones exp/dnn4_pretrain-dbn_dnn/decode_test/../final.mdl 'ark:gunzip -c exp/dnn4_pretrain-dbn_dnn/decode_test/lat.1.gz|' ark:- 
LOG (lattice-to-ctm-conf[5.1.46~1-0d031]:main():lattice-to-ctm-conf.cc:148) For utterance FC001_cw1, Bayes Risk 0.766804, avg. confidence per-word 0.966287
LOG (lattice-to-ctm-conf[5.1.46~1-0d031]:main():lattice-to-ctm-conf.cc:148) For utterance FC001_cw10, Bayes Risk 2.39494, avg. confidence per-word 0.971987
LOG (lattice-to-ctm-conf[5.1.46~1-0d031]:main():lattice-to-ctm-conf.cc:148) For utterance FC001_cw2, Bayes Risk 4.55575, avg. confidence per-word 0.892085
LOG (lattice-to-ctm-conf[5.1.46~1-0d031]:main():lattice-to-ctm-conf.cc:148) For utterance FC001_cw3, Bayes Risk 0.0252438, avg. confidence per-word 1
LOG (lattice-to-ctm-conf[5.1.46~1-0d031]:main():lattice-to-ctm-conf.cc:148) For utterance FC001_cw4, Bayes Risk 0.11233, avg. confidence per-word 0.99569
LOG (lattice-to-ctm-conf[5.1.46~1-0d031]:main():lattice-to-ctm-conf.cc:148) For utterance FC001_cw5, Bayes Risk 0.521306, avg. confidence per-word 0.99357
LOG (lattice-to-ctm-conf[5.1.46~1-0d031]:main():lattice-to-ctm-conf.cc:148) For utterance FC001_cw6, Bayes Risk 0.409865, avg. confidence per-word 0.987206
LOG (lattice-to-ctm-conf[5.1.46~1-0d031]:main():lattice-to-ctm-conf.cc:148) For utterance FC001_cw7, Bayes Risk 0.608422, avg. confidence per-word 0.998447
LOG (lattice-to-ctm-conf[5.1.46~1-0d031]:main():lattice-to-ctm-conf.cc:148) For utterance FC001_cw8, Bayes Risk 1.01957, avg. confidence per-word 0.991987
LOG (lattice-to-ctm-conf[5.1.46~1-0d031]:main():lattice-to-ctm-conf.cc:148) For utterance FC001_cw9, Bayes Risk 0.51801, avg. confidence per-word 0.997189
LOG (lattice-to-ctm-conf[5.1.46~1-0d031]:main():lattice-to-ctm-conf.cc:148) For utterance FC001_mp1, Bayes Risk 1.38941, avg. confidence per-word 0.955153
LOG (lattice-to-ctm-conf[5.1.46~1-0d031]:main():lattice-to-ctm-conf.cc:148) For utterance FC001_mp10, Bayes Risk 1.37141, avg. confidence per-word 0.951315
LOG (lattice-to-ctm-conf[5.1.46~1-0d031]:main():lattice-to-ctm-conf.cc:148) For utterance FC001_mp11, Bayes Risk 0.21178, avg. confidence per-word 0.999806
LOG (lattice-to-ctm-conf[5.1.46~1-0d031]:main():lattice-to-ctm-conf.cc:148) For utterance FC001_mp12, Bayes Risk 3.01092, avg. confidence per-word 0.914416
LOG (lattice-to-ctm-conf[5.1.46~1-0d031]:main():lattice-to-ctm-conf.cc:148) For utterance FC001_mp13, Bayes Risk 1.00556, avg. confidence per-word 0.966149
LOG (lattice-to-ctm-conf[5.1.46~1-0d031]:main():lattice-to-ctm-conf.cc:148) For utterance FC001_mp14, Bayes Risk 1.23489, avg. confidence per-word 0.952655
LOG (lattice-to-ctm-conf[5.1.46~1-0d031]:main():lattice-to-ctm-conf.cc:148) For utterance FC001_mp15, Bayes Risk 0.235717, avg. confidence per-word 0.993647
LOG (lattice-to-ctm-conf[5.1.46~1-0d031]:main():lattice-to-ctm-conf.cc:148) For utterance FC001_mp16, Bayes Risk 0.534451, avg. confidence per-word 0.981993
LOG (lattice-to-ctm-conf[5.1.46~1-0d031]:main():lattice-to-ctm-conf.cc:148) For utterance FC001_mp17, Bayes Risk 0.724878, avg. confidence per-word 0.967813
LOG (lattice-to-ctm-conf[5.1.46~1-0d031]:main():lattice-to-ctm-conf.cc:148) For utterance FC001_mp18, Bayes Risk 0.0412402, avg. confidence per-word 1
LOG (lattice-to-ctm-conf[5.1.46~1-0d031]:main():lattice-to-ctm-conf.cc:148) For utterance FC001_mp19, Bayes Risk 0.400779, avg. confidence per-word 0.982948
LOG (lattice-to-ctm-conf[5.1.46~1-0d031]:main():lattice-to-ctm-conf.cc:148) For utterance FC001_mp2, Bayes Risk 0.97366, avg. confidence per-word 0.955424
LOG (lattice-to-ctm-conf[5.1.46~1-0d031]:main():lattice-to-ctm-conf.cc:148) For utterance FC001_mp20, Bayes Risk 0.0938582, avg. confidence per-word 1
LOG (lattice-to-ctm-conf[5.1.46~1-0d031]:main():lattice-to-ctm-conf.cc:148) For utterance FC001_mp21, Bayes Risk 0.840686, avg. confidence per-word 0.97815
LOG (lattice-to-ctm-conf[5.1.46~1-0d031]:main():lattice-to-ctm-conf.cc:148) For utterance FC001_mp22, Bayes Risk 1.11519, avg. confidence per-word 0.965491
LOG (lattice-to-ctm-conf[5.1.46~1-0d031]:main():lattice-to-ctm-conf.cc:148) For utterance FC001_mp23, Bayes Risk 1.27159, avg. confidence per-word 0.958885
LOG (lattice-to-ctm-conf[5.1.46~1-0d031]:main():lattice-to-ctm-conf.cc:148) For utterance FC001_mp24, Bayes Risk 0.748319, avg. confidence per-word 0.986038
LOG (lattice-to-ctm-conf[5.1.46~1-0d031]:main():lattice-to-ctm-conf.cc:148) For utterance FC001_mp25, Bayes Risk 0.754512, avg. confidence per-word 0.976363
LOG (lattice-to-ctm-conf[5.1.46~1-0d031]:main():lattice-to-ctm-conf.cc:148) For utterance FC001_mp26, Bayes Risk 0.432379, avg. confidence per-word 0.987871
LOG (lattice-to-ctm-conf[5.1.46~1-0d031]:main():lattice-to-ctm-conf.cc:148) For utterance FC001_mp27, Bayes Risk 0.216478, avg. confidence per-word 0.990906
LOG (lattice-to-ctm-conf[5.1.46~1-0d031]:main():lattice-to-ctm-conf.cc:148) For utterance FC001_mp28, Bayes Risk 0.0448853, avg. confidence per-word 1
LOG (lattice-to-ctm-conf[5.1.46~1-0d031]:main():lattice-to-ctm-conf.cc:148) For utterance FC001_mp29, Bayes Risk 0.376555, avg. confidence per-word 0.994467
LOG (lattice-to-ctm-conf[5.1.46~1-0d031]:main():lattice-to-ctm-conf.cc:148) For utterance FC001_mp3, Bayes Risk 2.1098, avg. confidence per-word 0.957299
LOG (lattice-to-ctm-conf[5.1.46~1-0d031]:main():lattice-to-ctm-conf.cc:148) For utterance FC001_mp30, Bayes Risk 0.456721, avg. confidence per-word 0.987827
LOG (lattice-to-ctm-conf[5.1.46~1-0d031]:main():lattice-to-ctm-conf.cc:148) For utterance FC001_mp31, Bayes Risk 1.13743, avg. confidence per-word 0.954527
LOG (lattice-to-ctm-conf[5.1.46~1-0d031]:main():lattice-to-ctm-conf.cc:148) For utterance FC001_mp32, Bayes Risk 0.950123, avg. confidence per-word 0.966725
LOG (lattice-to-ctm-conf[5.1.46~1-0d031]:main():lattice-to-ctm-conf.cc:148) For utterance FC001_mp33, Bayes Risk 1.51028, avg. confidence per-word 0.962581
LOG (lattice-to-ctm-conf[5.1.46~1-0d031]:main():lattice-to-ctm-conf.cc:148) For utterance FC001_mp34, Bayes Risk 0.804693, avg. confidence per-word 0.96486
LOG (lattice-to-ctm-conf[5.1.46~1-0d031]:main():lattice-to-ctm-conf.cc:148) For utterance FC001_mp35, Bayes Risk 0.238002, avg. confidence per-word 0.997801
LOG (lattice-to-ctm-conf[5.1.46~1-0d031]:main():lattice-to-ctm-conf.cc:148) For utterance FC001_mp36, Bayes Risk 0.12618, avg. confidence per-word 0.998043
LOG (lattice-to-ctm-conf[5.1.46~1-0d031]:main():lattice-to-ctm-conf.cc:148) For utterance FC001_mp37, Bayes Risk 0.771679, avg. confidence per-word 0.97169
LOG (lattice-to-ctm-conf[5.1.46~1-0d031]:main():lattice-to-ctm-conf.cc:148) For utterance FC001_mp38, Bayes Risk 0.886405, avg. confidence per-word 0.96428
LOG (lattice-to-ctm-conf[5.1.46~1-0d031]:main():lattice-to-ctm-conf.cc:148) For utterance FC001_mp39, Bayes Risk 2.27023, avg. confidence per-word 0.9288
LOG (lattice-to-ctm-conf[5.1.46~1-0d031]:main():lattice-to-ctm-conf.cc:148) For utterance FC001_mp4, Bayes Risk 2.79901, avg. confidence per-word 0.880315
LOG (lattice-to-ctm-conf[5.1.46~1-0d031]:main():lattice-to-ctm-conf.cc:148) For utterance FC001_mp40, Bayes Risk 2.39303, avg. confidence per-word 0.931548
LOG (lattice-to-ctm-conf[5.1.46~1-0d031]:main():lattice-to-ctm-conf.cc:148) For utterance FC001_mp41, Bayes Risk 1.23722, avg. confidence per-word 0.957965
LOG (lattice-to-ctm-conf[5.1.46~1-0d031]:main():lattice-to-ctm-conf.cc:148) For utterance FC001_mp42, Bayes Risk 1.34583, avg. confidence per-word 0.95117
LOG (lattice-to-ctm-conf[5.1.46~1-0d031]:main():lattice-to-ctm-conf.cc:148) For utterance FC001_mp43, Bayes Risk 2.15438, avg. confidence per-word 0.956726
LOG (lattice-to-ctm-conf[5.1.46~1-0d031]:main():lattice-to-ctm-conf.cc:148) For utterance FC001_mp44, Bayes Risk 2.25365, avg. confidence per-word 0.966223
LOG (lattice-to-ctm-conf[5.1.46~1-0d031]:main():lattice-to-ctm-conf.cc:148) For utterance FC001_mp45, Bayes Risk 1.94513, avg. confidence per-word 0.953995
LOG (lattice-to-ctm-conf[5.1.46~1-0d031]:main():lattice-to-ctm-conf.cc:148) For utterance FC001_mp46, Bayes Risk 2.97635, avg. confidence per-word 0.922148
LOG (lattice-to-ctm-conf[5.1.46~1-0d031]:main():lattice-to-ctm-conf.cc:148) For utterance FC001_mp47, Bayes Risk 1.64706, avg. confidence per-word 0.955859
LOG (lattice-to-ctm-conf[5.1.46~1-0d031]:main():lattice-to-ctm-conf.cc:148) For utterance FC001_mp48, Bayes Risk 1.52679, avg. confidence per-word 0.97373
LOG (lattice-to-ctm-conf[5.1.46~1-0d031]:main():lattice-to-ctm-conf.cc:148) For utterance FC001_mp49, Bayes Risk 0.0818662, avg. confidence per-word 0.998088
LOG (lattice-to-ctm-conf[5.1.46~1-0d031]:main():lattice-to-ctm-conf.cc:148) For utterance FC001_mp5, Bayes Risk 1.3128, avg. confidence per-word 0.961772
LOG (lattice-to-ctm-conf[5.1.46~1-0d031]:main():lattice-to-ctm-conf.cc:148) For utterance FC001_mp50, Bayes Risk 0.0238261, avg. confidence per-word 1
LOG (lattice-to-ctm-conf[5.1.46~1-0d031]:main():lattice-to-ctm-conf.cc:148) For utterance FC001_mp6, Bayes Risk 0.777628, avg. confidence per-word 0.989194
LOG (lattice-to-ctm-conf[5.1.46~1-0d031]:main():lattice-to-ctm-conf.cc:148) For utterance FC001_mp7, Bayes Risk 1.23306, avg. confidence per-word 0.945037
LOG (lattice-to-ctm-conf[5.1.46~1-0d031]:main():lattice-to-ctm-conf.cc:148) For utterance FC001_mp8, Bayes Risk 0.0254453, avg. confidence per-word 1
LOG (lattice-to-ctm-conf[5.1.46~1-0d031]:main():lattice-to-ctm-conf.cc:148) For utterance FC001_mp9, Bayes Risk 3.32703, avg. confidence per-word 0.861222
LOG (lattice-to-ctm-conf[5.1.46~1-0d031]:main():lattice-to-ctm-conf.cc:148) For utterance FC001_nw1, Bayes Risk 4.2732, avg. confidence per-word 0.955214
LOG (lattice-to-ctm-conf[5.1.46~1-0d031]:main():lattice-to-ctm-conf.cc:148) For utterance FC001_nw2, Bayes Risk 5.05935, avg. confidence per-word 0.965632
LOG (lattice-to-ctm-conf[5.1.46~1-0d031]:main():lattice-to-ctm-conf.cc:148) For utterance FC001_nw3, Bayes Risk 5.4343, avg. confidence per-word 0.970443
LOG (lattice-to-ctm-conf[5.1.46~1-0d031]:main():lattice-to-ctm-conf.cc:148) For utterance FC001_nw4, Bayes Risk 2.11058, avg. confidence per-word 0.960118
LOG (lattice-to-ctm-conf[5.1.46~1-0d031]:main():lattice-to-ctm-conf.cc:148) For utterance FC001_nw5, Bayes Risk 2.14703, avg. confidence per-word 0.970448
LOG (lattice-to-ctm-conf[5.1.46~1-0d031]:main():lattice-to-ctm-conf.cc:148) For utterance FC001_nw6, Bayes Risk 2.59534, avg. confidence per-word 0.972853
LOG (lattice-to-ctm-conf[5.1.46~1-0d031]:main():lattice-to-ctm-conf.cc:148) For utterance FC001_ps1, Bayes Risk 1.26474, avg. confidence per-word 0.984885
LOG (lattice-to-ctm-conf[5.1.46~1-0d031]:main():lattice-to-ctm-conf.cc:148) For utterance FC001_ps10, Bayes Risk 2.52149, avg. confidence per-word 0.981024
LOG (lattice-to-ctm-conf[5.1.46~1-0d031]:main():lattice-to-ctm-conf.cc:148) For utterance FC001_ps11, Bayes Risk 1.74832, avg. confidence per-word 0.965642
LOG (lattice-to-ctm-conf[5.1.46~1-0d031]:main():lattice-to-ctm-conf.cc:148) For utterance FC001_ps12, Bayes Risk 2.47461, avg. confidence per-word 0.982893
LOG (lattice-to-ctm-conf[5.1.46~1-0d031]:main():lattice-to-ctm-conf.cc:148) For utterance FC001_ps13, Bayes Risk 2.65257, avg. confidence per-word 0.984027
LOG (lattice-to-ctm-conf[5.1.46~1-0d031]:main():lattice-to-ctm-conf.cc:148) For utterance FC001_ps14, Bayes Risk 2.4803, avg. confidence per-word 0.954427
LOG (lattice-to-ctm-conf[5.1.46~1-0d031]:main():lattice-to-ctm-conf.cc:148) For utterance FC001_ps15, Bayes Risk 1.17998, avg. confidence per-word 0.998198
LOG (lattice-to-ctm-conf[5.1.46~1-0d031]:main():lattice-to-ctm-conf.cc:148) For utterance FC001_ps16, Bayes Risk 0.182376, avg. confidence per-word 1
LOG (lattice-to-ctm-conf[5.1.46~1-0d031]:main():lattice-to-ctm-conf.cc:148) For utterance FC001_ps17, Bayes Risk 2.35324, avg. confidence per-word 0.982289
LOG (lattice-to-ctm-conf[5.1.46~1-0d031]:main():lattice-to-ctm-conf.cc:148) For utterance FC001_ps18, Bayes Risk 4.34933, avg. confidence per-word 0.984401
LOG (lattice-to-ctm-conf[5.1.46~1-0d031]:main():lattice-to-ctm-conf.cc:148) For utterance FC001_ps19, Bayes Risk 2.78773, avg. confidence per-word 0.9792
LOG (lattice-to-ctm-conf[5.1.46~1-0d031]:main():lattice-to-ctm-conf.cc:148) For utterance FC001_ps2, Bayes Risk 0.650786, avg. confidence per-word 0.990575
LOG (lattice-to-ctm-conf[5.1.46~1-0d031]:main():lattice-to-ctm-conf.cc:148) For utterance FC001_ps20, Bayes Risk 0.937278, avg. confidence per-word 0.978326
LOG (lattice-to-ctm-conf[5.1.46~1-0d031]:main():lattice-to-ctm-conf.cc:148) For utterance FC001_ps3, Bayes Risk 4.25668, avg. confidence per-word 0.946919
LOG (lattice-to-ctm-conf[5.1.46~1-0d031]:main():lattice-to-ctm-conf.cc:148) For utterance FC001_ps4, Bayes Risk 2.93199, avg. confidence per-word 0.951348
LOG (lattice-to-ctm-conf[5.1.46~1-0d031]:main():lattice-to-ctm-conf.cc:148) For utterance FC001_ps5, Bayes Risk 1.60892, avg. confidence per-word 0.962665
LOG (lattice-to-ctm-conf[5.1.46~1-0d031]:main():lattice-to-ctm-conf.cc:148) For utterance FC001_ps6, Bayes Risk 2.64873, avg. confidence per-word 0.970835
LOG (lattice-to-ctm-conf[5.1.46~1-0d031]:main():lattice-to-ctm-conf.cc:148) For utterance FC001_ps7, Bayes Risk 2.25268, avg. confidence per-word 0.963221
LOG (lattice-to-ctm-conf[5.1.46~1-0d031]:main():lattice-to-ctm-conf.cc:148) For utterance FC001_ps8, Bayes Risk 1.90893, avg. confidence per-word 0.978948
LOG (lattice-to-ctm-conf[5.1.46~1-0d031]:main():lattice-to-ctm-conf.cc:148) For utterance FC001_ps9, Bayes Risk 2.75578, avg. confidence per-word 0.967639
LOG (lattice-to-ctm-conf[5.1.46~1-0d031]:main():lattice-to-ctm-conf.cc:148) For utterance FC001_sa1, Bayes Risk 2.39256, avg. confidence per-word 0.955628
LOG (lattice-to-ctm-conf[5.1.46~1-0d031]:main():lattice-to-ctm-conf.cc:148) For utterance FC001_sa2, Bayes Risk 0.984692, avg. confidence per-word 0.990636
LOG (lattice-to-ctm-conf[5.1.46~1-0d031]:main():lattice-to-ctm-conf.cc:148) For utterance FC001_si2154, Bayes Risk 2.01363, avg. confidence per-word 0.971291
LOG (lattice-to-ctm-conf[5.1.46~1-0d031]:main():lattice-to-ctm-conf.cc:148) For utterance FC001_si2155, Bayes Risk 0.0564673, avg. confidence per-word 0.999516
LOG (lattice-to-ctm-conf[5.1.46~1-0d031]:main():lattice-to-ctm-conf.cc:148) For utterance FC001_si2156, Bayes Risk 2.18741, avg. confidence per-word 0.966969
LOG (lattice-to-ctm-conf[5.1.46~1-0d031]:main():lattice-to-ctm-conf.cc:148) For utterance FC001_si2157, Bayes Risk 0.69071, avg. confidence per-word 0.978005
LOG (lattice-to-ctm-conf[5.1.46~1-0d031]:main():lattice-to-ctm-conf.cc:148) For utterance FC001_si2158, Bayes Risk 2.31094, avg. confidence per-word 0.970498
LOG (lattice-to-ctm-conf[5.1.46~1-0d031]:main():lattice-to-ctm-conf.cc:148) For utterance FC001_si2159, Bayes Risk 2.80139, avg. confidence per-word 0.969479
LOG (lattice-to-ctm-conf[5.1.46~1-0d031]:main():lattice-to-ctm-conf.cc:148) For utterance FC001_si2160, Bayes Risk 1.53428, avg. confidence per-word 0.964634
LOG (lattice-to-ctm-conf[5.1.46~1-0d031]:main():lattice-to-ctm-conf.cc:148) For utterance FC001_si2161, Bayes Risk 1.89819, avg. confidence per-word 0.921749
LOG (lattice-to-ctm-conf[5.1.46~1-0d031]:main():lattice-to-ctm-conf.cc:148) For utterance FC001_si2162, Bayes Risk 1.42614, avg. confidence per-word 0.97907
LOG (lattice-to-ctm-conf[5.1.46~1-0d031]:main():lattice-to-ctm-conf.cc:148) For utterance FC001_si2163, Bayes Risk 2.29826, avg. confidence per-word 0.959511
LOG (lattice-to-ctm-conf[5.1.46~1-0d031]:main():lattice-to-ctm-conf.cc:148) For utterance FC001_si2164, Bayes Risk 0.666344, avg. confidence per-word 0.980965
LOG (lattice-to-ctm-conf[5.1.46~1-0d031]:main():lattice-to-ctm-conf.cc:148) For utterance FC001_si2165, Bayes Risk 0.187276, avg. confidence per-word 1
LOG (lattice-to-ctm-conf[5.1.46~1-0d031]:main():lattice-to-ctm-conf.cc:148) For utterance FC001_si2166, Bayes Risk 0.636079, avg. confidence per-word 0.994474
LOG (lattice-to-ctm-conf[5.1.46~1-0d031]:main():lattice-to-ctm-conf.cc:148) For utterance FC001_si2167, Bayes Risk 2.70022, avg. confidence per-word 0.976873
LOG (lattice-to-ctm-conf[5.1.46~1-0d031]:main():lattice-to-ctm-conf.cc:148) For utterance FC001_si2168, Bayes Risk 1.19538, avg. confidence per-word 0.986984
LOG (lattice-to-ctm-conf[5.1.46~1-0d031]:main():lattice-to-ctm-conf.cc:148) For utterance FC001_si2169, Bayes Risk 2.9925, avg. confidence per-word 0.955634
LOG (lattice-to-ctm-conf[5.1.46~1-0d031]:main():lattice-to-ctm-conf.cc:148) For utterance FC001_si2170, Bayes Risk 3.21184, avg. confidence per-word 0.96677
LOG (lattice-to-ctm-conf[5.1.46~1-0d031]:main():lattice-to-ctm-conf.cc:148) For utterance FC001_si2171, Bayes Risk 1.66286, avg. confidence per-word 0.960029
LOG (lattice-to-ctm-conf[5.1.46~1-0d031]:main():lattice-to-ctm-conf.cc:148) For utterance FC001_si2172, Bayes Risk 1.71388, avg. confidence per-word 0.980065
LOG (lattice-to-ctm-conf[5.1.46~1-0d031]:main():lattice-to-ctm-conf.cc:148) For utterance FC001_si2173, Bayes Risk 3.39453, avg. confidence per-word 0.971168
LOG (lattice-to-ctm-conf[5.1.46~1-0d031]:main():lattice-to-ctm-conf.cc:148) For utterance FC001_si2174, Bayes Risk 0.418285, avg. confidence per-word 0.985684
LOG (lattice-to-ctm-conf[5.1.46~1-0d031]:main():lattice-to-ctm-conf.cc:148) For utterance FC001_si2175, Bayes Risk 1.57873, avg. confidence per-word 0.966892
LOG (lattice-to-ctm-conf[5.1.46~1-0d031]:main():lattice-to-ctm-conf.cc:148) For utterance FC001_si2176, Bayes Risk 2.85187, avg. confidence per-word 0.960678
LOG (lattice-to-ctm-conf[5.1.46~1-0d031]:main():lattice-to-ctm-conf.cc:148) For utterance FC001_si2177, Bayes Risk 1.47059, avg. confidence per-word 0.963293
LOG (lattice-to-ctm-conf[5.1.46~1-0d031]:main():lattice-to-ctm-conf.cc:148) For utterance FC001_si2178, Bayes Risk 1.64313, avg. confidence per-word 0.982371
LOG (lattice-to-ctm-conf[5.1.46~1-0d031]:main():lattice-to-ctm-conf.cc:148) For utterance FC001_si2179, Bayes Risk 0.1884, avg. confidence per-word 0.999884
LOG (lattice-to-ctm-conf[5.1.46~1-0d031]:main():lattice-to-ctm-conf.cc:148) For utterance FC001_si2180, Bayes Risk 1.71981, avg. confidence per-word 0.974013
LOG (lattice-to-ctm-conf[5.1.46~1-0d031]:main():lattice-to-ctm-conf.cc:148) For utterance FC001_si2181, Bayes Risk 1.53287, avg. confidence per-word 0.977021
LOG (lattice-to-ctm-conf[5.1.46~1-0d031]:main():lattice-to-ctm-conf.cc:148) For utterance FC001_si2182, Bayes Risk 0.455859, avg. confidence per-word 0.987739
LOG (lattice-to-ctm-conf[5.1.46~1-0d031]:main():lattice-to-ctm-conf.cc:148) For utterance FC001_si2183, Bayes Risk 0.963736, avg. confidence per-word 0.962157
LOG (lattice-to-ctm-conf[5.1.46~1-0d031]:main():lattice-to-ctm-conf.cc:148) For utterance FC001_si2184, Bayes Risk 1.38739, avg. confidence per-word 0.947668
LOG (lattice-to-ctm-conf[5.1.46~1-0d031]:main():lattice-to-ctm-conf.cc:148) For utterance FC001_si2185, Bayes Risk 2.22711, avg. confidence per-word 0.982358
LOG (lattice-to-ctm-conf[5.1.46~1-0d031]:main():lattice-to-ctm-conf.cc:148) For utterance FC001_si2186, Bayes Risk 1.12349, avg. confidence per-word 0.983632
LOG (lattice-to-ctm-conf[5.1.46~1-0d031]:main():lattice-to-ctm-conf.cc:148) For utterance FC001_si2187, Bayes Risk 2.3722, avg. confidence per-word 0.963259
LOG (lattice-to-ctm-conf[5.1.46~1-0d031]:main():lattice-to-ctm-conf.cc:148) For utterance FC001_si2188, Bayes Risk 1.67902, avg. confidence per-word 0.975771
LOG (lattice-to-ctm-conf[5.1.46~1-0d031]:main():lattice-to-ctm-conf.cc:148) For utterance FC001_si2189, Bayes Risk 0.784341, avg. confidence per-word 0.987744
LOG (lattice-to-ctm-conf[5.1.46~1-0d031]:main():lattice-to-ctm-conf.cc:148) For utterance FC001_si2190, Bayes Risk 1.08016, avg. confidence per-word 0.989868
LOG (lattice-to-ctm-conf[5.1.46~1-0d031]:main():lattice-to-ctm-conf.cc:148) For utterance FC001_si2191, Bayes Risk 1.89738, avg. confidence per-word 0.964652
LOG (lattice-to-ctm-conf[5.1.46~1-0d031]:main():lattice-to-ctm-conf.cc:148) For utterance FC001_si2192, Bayes Risk 0.748453, avg. confidence per-word 0.992249
LOG (lattice-to-ctm-conf[5.1.46~1-0d031]:main():lattice-to-ctm-conf.cc:148) For utterance FC001_si2193, Bayes Risk 1.23502, avg. confidence per-word 0.992038
LOG (lattice-to-ctm-conf[5.1.46~1-0d031]:main():lattice-to-ctm-conf.cc:148) For utterance FC001_si2194, Bayes Risk 3.25286, avg. confidence per-word 0.971873
LOG (lattice-to-ctm-conf[5.1.46~1-0d031]:main():lattice-to-ctm-conf.cc:148) For utterance FC001_si2195, Bayes Risk 1.55492, avg. confidence per-word 0.971879
LOG (lattice-to-ctm-conf[5.1.46~1-0d031]:main():lattice-to-ctm-conf.cc:148) For utterance FC001_si2196, Bayes Risk 3.3134, avg. confidence per-word 0.977787
LOG (lattice-to-ctm-conf[5.1.46~1-0d031]:main():lattice-to-ctm-conf.cc:148) For utterance FC001_si2197, Bayes Risk 2.14237, avg. confidence per-word 0.972389
LOG (lattice-to-ctm-conf[5.1.46~1-0d031]:main():lattice-to-ctm-conf.cc:148) For utterance FC001_si2198, Bayes Risk 3.07147, avg. confidence per-word 0.985602
LOG (lattice-to-ctm-conf[5.1.46~1-0d031]:main():lattice-to-ctm-conf.cc:148) For utterance FC001_si2199, Bayes Risk 0.0480299, avg. confidence per-word 0.997384
LOG (lattice-to-ctm-conf[5.1.46~1-0d031]:main():lattice-to-ctm-conf.cc:148) For utterance FC001_si2200, Bayes Risk 2.09072, avg. confidence per-word 0.95127
LOG (lattice-to-ctm-conf[5.1.46~1-0d031]:main():lattice-to-ctm-conf.cc:148) For utterance FC001_si2201, Bayes Risk 1.3331, avg. confidence per-word 0.980518
LOG (lattice-to-ctm-conf[5.1.46~1-0d031]:main():lattice-to-ctm-conf.cc:148) For utterance FC001_si2202, Bayes Risk 0.422223, avg. confidence per-word 0.972167
LOG (lattice-to-ctm-conf[5.1.46~1-0d031]:main():lattice-to-ctm-conf.cc:148) For utterance FC001_si2203, Bayes Risk 0.87402, avg. confidence per-word 0.972148
LOG (lattice-to-ctm-conf[5.1.46~1-0d031]:main():lattice-to-ctm-conf.cc:148) For utterance FC001_si2204, Bayes Risk 2.14142, avg. confidence per-word 0.976927
LOG (lattice-to-ctm-conf[5.1.46~1-0d031]:main():lattice-to-ctm-conf.cc:148) For utterance FC001_si2205, Bayes Risk 1.83544, avg. confidence per-word 0.985606
LOG (lattice-to-ctm-conf[5.1.46~1-0d031]:main():lattice-to-ctm-conf.cc:148) For utterance FC001_si2206, Bayes Risk 4.02188, avg. confidence per-word 0.955067
LOG (lattice-to-ctm-conf[5.1.46~1-0d031]:main():lattice-to-ctm-conf.cc:148) For utterance FC001_si2207, Bayes Risk 0.514869, avg. confidence per-word 0.979279
LOG (lattice-to-ctm-conf[5.1.46~1-0d031]:main():lattice-to-ctm-conf.cc:148) For utterance FC001_si2208, Bayes Risk 3.11808, avg. confidence per-word 0.94701
LOG (lattice-to-ctm-conf[5.1.46~1-0d031]:main():lattice-to-ctm-conf.cc:148) For utterance FC001_si2209, Bayes Risk 1.15995, avg. confidence per-word 0.971629
LOG (lattice-to-ctm-conf[5.1.46~1-0d031]:main():lattice-to-ctm-conf.cc:148) For utterance FC001_si2210, Bayes Risk 0.985978, avg. confidence per-word 0.983231
LOG (lattice-to-ctm-conf[5.1.46~1-0d031]:main():lattice-to-ctm-conf.cc:148) For utterance FC001_si2211, Bayes Risk 1.40755, avg. confidence per-word 0.995719
LOG (lattice-to-ctm-conf[5.1.46~1-0d031]:main():lattice-to-ctm-conf.cc:148) For utterance FC001_si2212, Bayes Risk 1.0823, avg. confidence per-word 0.972482
LOG (lattice-to-ctm-conf[5.1.46~1-0d031]:main():lattice-to-ctm-conf.cc:148) For utterance FC001_si2213, Bayes Risk 0.741892, avg. confidence per-word 0.972813
LOG (lattice-to-ctm-conf[5.1.46~1-0d031]:main():lattice-to-ctm-conf.cc:148) For utterance FC001_si2214, Bayes Risk 1.68564, avg. confidence per-word 0.971504
LOG (lattice-to-ctm-conf[5.1.46~1-0d031]:main():lattice-to-ctm-conf.cc:148) For utterance FC001_si2215, Bayes Risk 2.78609, avg. confidence per-word 0.97111
LOG (lattice-to-ctm-conf[5.1.46~1-0d031]:main():lattice-to-ctm-conf.cc:148) For utterance FC001_si2216, Bayes Risk 0.0382882, avg. confidence per-word 0.99977
LOG (lattice-to-ctm-conf[5.1.46~1-0d031]:main():lattice-to-ctm-conf.cc:148) For utterance FC001_si2217, Bayes Risk 2.27428, avg. confidence per-word 0.955736
LOG (lattice-to-ctm-conf[5.1.46~1-0d031]:main():lattice-to-ctm-conf.cc:148) For utterance FC001_si2218, Bayes Risk 0.240978, avg. confidence per-word 0.999068
LOG (lattice-to-ctm-conf[5.1.46~1-0d031]:main():lattice-to-ctm-conf.cc:148) For utterance FC001_si2219, Bayes Risk 0.629945, avg. confidence per-word 0.998876
LOG (lattice-to-ctm-conf[5.1.46~1-0d031]:main():lattice-to-ctm-conf.cc:148) For utterance FC001_si2220, Bayes Risk 1.49064, avg. confidence per-word 0.988048
LOG (lattice-to-ctm-conf[5.1.46~1-0d031]:main():lattice-to-ctm-conf.cc:148) For utterance FC001_si2221, Bayes Risk 1.17646, avg. confidence per-word 0.968716
LOG (lattice-to-ctm-conf[5.1.46~1-0d031]:main():lattice-to-ctm-conf.cc:148) For utterance FC001_si2222, Bayes Risk 1.10989, avg. confidence per-word 0.985754
LOG (lattice-to-ctm-conf[5.1.46~1-0d031]:main():lattice-to-ctm-conf.cc:148) For utterance FC001_si2223, Bayes Risk 3.93871, avg. confidence per-word 0.944128
LOG (lattice-to-ctm-conf[5.1.46~1-0d031]:main():lattice-to-ctm-conf.cc:148) For utterance FC001_si2224, Bayes Risk 1.0328, avg. confidence per-word 0.983242
LOG (lattice-to-ctm-conf[5.1.46~1-0d031]:main():lattice-to-ctm-conf.cc:148) For utterance FC001_si2225, Bayes Risk 0.521015, avg. confidence per-word 0.989258
LOG (lattice-to-ctm-conf[5.1.46~1-0d031]:main():lattice-to-ctm-conf.cc:148) For utterance FC001_si2226, Bayes Risk 1.90149, avg. confidence per-word 0.974307
LOG (lattice-to-ctm-conf[5.1.46~1-0d031]:main():lattice-to-ctm-conf.cc:148) For utterance FC001_si2227, Bayes Risk 0.283142, avg. confidence per-word 0.999897
LOG (lattice-to-ctm-conf[5.1.46~1-0d031]:main():lattice-to-ctm-conf.cc:148) For utterance FC001_si2228, Bayes Risk 0.956833, avg. confidence per-word 0.985794
LOG (lattice-to-ctm-conf[5.1.46~1-0d031]:main():lattice-to-ctm-conf.cc:148) For utterance FC001_si2229, Bayes Risk 0.591352, avg. confidence per-word 0.979738
LOG (lattice-to-ctm-conf[5.1.46~1-0d031]:main():lattice-to-ctm-conf.cc:148) For utterance FC001_si2230, Bayes Risk 3.24509, avg. confidence per-word 0.972988
LOG (lattice-to-ctm-conf[5.1.46~1-0d031]:main():lattice-to-ctm-conf.cc:148) For utterance FC001_si2231, Bayes Risk 1.6755, avg. confidence per-word 0.973186
LOG (lattice-to-ctm-conf[5.1.46~1-0d031]:main():lattice-to-ctm-conf.cc:148) For utterance FC001_si2232, Bayes Risk 2.28109, avg. confidence per-word 0.991883
LOG (lattice-to-ctm-conf[5.1.46~1-0d031]:main():lattice-to-ctm-conf.cc:148) For utterance FC001_si2233, Bayes Risk 1.06278, avg. confidence per-word 0.984826
LOG (lattice-to-ctm-conf[5.1.46~1-0d031]:main():lattice-to-ctm-conf.cc:148) For utterance FC001_si2234, Bayes Risk 1.34153, avg. confidence per-word 0.963938
LOG (lattice-to-ctm-conf[5.1.46~1-0d031]:main():lattice-to-ctm-conf.cc:148) For utterance FC001_si2235, Bayes Risk 2.6617, avg. confidence per-word 0.933394
LOG (lattice-to-ctm-conf[5.1.46~1-0d031]:main():lattice-to-ctm-conf.cc:148) For utterance FC001_si2236, Bayes Risk 1.88874, avg. confidence per-word 0.974208
LOG (lattice-to-ctm-conf[5.1.46~1-0d031]:main():lattice-to-ctm-conf.cc:148) For utterance FC001_si2237, Bayes Risk 1.52179, avg. confidence per-word 0.934267
LOG (lattice-to-ctm-conf[5.1.46~1-0d031]:main():lattice-to-ctm-conf.cc:148) For utterance FC001_si2238, Bayes Risk 1.23096, avg. confidence per-word 0.99539
LOG (lattice-to-ctm-conf[5.1.46~1-0d031]:main():lattice-to-ctm-conf.cc:148) For utterance FC001_si2239, Bayes Risk 1.03922, avg. confidence per-word 0.963203
LOG (lattice-to-ctm-conf[5.1.46~1-0d031]:main():lattice-to-ctm-conf.cc:148) For utterance FC001_si2240, Bayes Risk 1.36481, avg. confidence per-word 0.974563
LOG (lattice-to-ctm-conf[5.1.46~1-0d031]:main():lattice-to-ctm-conf.cc:148) For utterance FC001_si2241, Bayes Risk 1.93984, avg. confidence per-word 0.967937
LOG (lattice-to-ctm-conf[5.1.46~1-0d031]:main():lattice-to-ctm-conf.cc:148) For utterance FC001_si2242, Bayes Risk 1.06618, avg. confidence per-word 0.977173
LOG (lattice-to-ctm-conf[5.1.46~1-0d031]:main():lattice-to-ctm-conf.cc:148) For utterance FC001_si2243, Bayes Risk 0.981229, avg. confidence per-word 0.995712
LOG (lattice-to-ctm-conf[5.1.46~1-0d031]:main():lattice-to-ctm-conf.cc:148) For utterance FC001_si2244, Bayes Risk 0.697636, avg. confidence per-word 0.99117
LOG (lattice-to-ctm-conf[5.1.46~1-0d031]:main():lattice-to-ctm-conf.cc:148) For utterance FC001_si2245, Bayes Risk 1.73348, avg. confidence per-word 0.950884
LOG (lattice-to-ctm-conf[5.1.46~1-0d031]:main():lattice-to-ctm-conf.cc:148) For utterance FC001_si2246, Bayes Risk 1.29268, avg. confidence per-word 0.969154
LOG (lattice-to-ctm-conf[5.1.46~1-0d031]:main():lattice-to-ctm-conf.cc:148) For utterance FC001_si2247, Bayes Risk 1.43169, avg. confidence per-word 0.946212
LOG (lattice-to-ctm-conf[5.1.46~1-0d031]:main():lattice-to-ctm-conf.cc:148) For utterance FC001_si2248, Bayes Risk 1.20971, avg. confidence per-word 0.978112
LOG (lattice-to-ctm-conf[5.1.46~1-0d031]:main():lattice-to-ctm-conf.cc:148) For utterance FC001_si2249, Bayes Risk 3.5533, avg. confidence per-word 0.96367
LOG (lattice-to-ctm-conf[5.1.46~1-0d031]:main():lattice-to-ctm-conf.cc:148) For utterance FC001_si2250, Bayes Risk 1.0874, avg. confidence per-word 0.997411
LOG (lattice-to-ctm-conf[5.1.46~1-0d031]:main():lattice-to-ctm-conf.cc:148) For utterance FC001_si2251, Bayes Risk 1.49122, avg. confidence per-word 0.975099
LOG (lattice-to-ctm-conf[5.1.46~1-0d031]:main():lattice-to-ctm-conf.cc:148) For utterance FC001_si2252, Bayes Risk 1.40732, avg. confidence per-word 0.983542
LOG (lattice-to-ctm-conf[5.1.46~1-0d031]:main():lattice-to-ctm-conf.cc:148) For utterance FC001_si2253, Bayes Risk 0.89395, avg. confidence per-word 0.969115
LOG (lattice-to-ctm-conf[5.1.46~1-0d031]:main():lattice-to-ctm-conf.cc:148) For utterance FC001_si2254, Bayes Risk 1.80291, avg. confidence per-word 0.958959
LOG (lattice-to-ctm-conf[5.1.46~1-0d031]:main():lattice-to-ctm-conf.cc:148) For utterance FC001_si2255, Bayes Risk 1.26705, avg. confidence per-word 0.982584
LOG (lattice-to-ctm-conf[5.1.46~1-0d031]:main():lattice-to-ctm-conf.cc:148) For utterance FC001_si2256, Bayes Risk 2.22058, avg. confidence per-word 0.955291
LOG (lattice-to-ctm-conf[5.1.46~1-0d031]:main():lattice-to-ctm-conf.cc:148) For utterance FC001_si2257, Bayes Risk 0.549964, avg. confidence per-word 0.989263
LOG (lattice-to-ctm-conf[5.1.46~1-0d031]:main():lattice-to-ctm-conf.cc:148) For utterance FC001_si2258, Bayes Risk 0.19966, avg. confidence per-word 0.990079
LOG (lattice-to-ctm-conf[5.1.46~1-0d031]:main():lattice-to-ctm-conf.cc:148) For utterance FC001_si2259, Bayes Risk 2.20093, avg. confidence per-word 0.943072
LOG (lattice-to-ctm-conf[5.1.46~1-0d031]:main():lattice-to-ctm-conf.cc:148) For utterance FC001_si2260, Bayes Risk 3.6323, avg. confidence per-word 0.969475
LOG (lattice-to-ctm-conf[5.1.46~1-0d031]:main():lattice-to-ctm-conf.cc:148) For utterance FC001_si2261, Bayes Risk 1.18415, avg. confidence per-word 0.989655
LOG (lattice-to-ctm-conf[5.1.46~1-0d031]:main():lattice-to-ctm-conf.cc:148) For utterance FC001_si2262, Bayes Risk 2.96935, avg. confidence per-word 0.954723
LOG (lattice-to-ctm-conf[5.1.46~1-0d031]:main():lattice-to-ctm-conf.cc:148) For utterance FC001_si2263, Bayes Risk 0.975336, avg. confidence per-word 0.980399
LOG (lattice-to-ctm-conf[5.1.46~1-0d031]:main():lattice-to-ctm-conf.cc:148) For utterance FC001_si2264, Bayes Risk 1.64487, avg. confidence per-word 0.962956
LOG (lattice-to-ctm-conf[5.1.46~1-0d031]:main():lattice-to-ctm-conf.cc:148) For utterance FC001_si2265, Bayes Risk 1.09893, avg. confidence per-word 0.949002
LOG (lattice-to-ctm-conf[5.1.46~1-0d031]:main():lattice-to-ctm-conf.cc:148) For utterance FC001_si2266, Bayes Risk 1.31722, avg. confidence per-word 0.99513
LOG (lattice-to-ctm-conf[5.1.46~1-0d031]:main():lattice-to-ctm-conf.cc:148) For utterance FC001_si2267, Bayes Risk 0.900934, avg. confidence per-word 0.985257
LOG (lattice-to-ctm-conf[5.1.46~1-0d031]:main():lattice-to-ctm-conf.cc:148) For utterance FC001_si2268, Bayes Risk 2.89034, avg. confidence per-word 0.973191
LOG (lattice-to-ctm-conf[5.1.46~1-0d031]:main():lattice-to-ctm-conf.cc:148) For utterance FC001_si2269, Bayes Risk 0.968649, avg. confidence per-word 0.971066
LOG (lattice-to-ctm-conf[5.1.46~1-0d031]:main():lattice-to-ctm-conf.cc:148) For utterance FC001_si2270, Bayes Risk 0.531166, avg. confidence per-word 0.981093
LOG (lattice-to-ctm-conf[5.1.46~1-0d031]:main():lattice-to-ctm-conf.cc:148) For utterance FC001_si2271, Bayes Risk 0.272677, avg. confidence per-word 0.994659
LOG (lattice-to-ctm-conf[5.1.46~1-0d031]:main():lattice-to-ctm-conf.cc:148) For utterance FC001_si2272, Bayes Risk 2.4872, avg. confidence per-word 0.972108
LOG (lattice-to-ctm-conf[5.1.46~1-0d031]:main():lattice-to-ctm-conf.cc:148) For utterance FC001_si2273, Bayes Risk 0.535956, avg. confidence per-word 0.982459
LOG (lattice-to-ctm-conf[5.1.46~1-0d031]:main():lattice-to-ctm-conf.cc:148) For utterance FC001_si2274, Bayes Risk 2.13557, avg. confidence per-word 0.948846
LOG (lattice-to-ctm-conf[5.1.46~1-0d031]:main():lattice-to-ctm-conf.cc:148) For utterance FC001_si2275, Bayes Risk 2.62727, avg. confidence per-word 0.972109
LOG (lattice-to-ctm-conf[5.1.46~1-0d031]:main():lattice-to-ctm-conf.cc:148) For utterance FC001_si2276, Bayes Risk 3.88127, avg. confidence per-word 0.95574
LOG (lattice-to-ctm-conf[5.1.46~1-0d031]:main():lattice-to-ctm-conf.cc:148) For utterance FC001_si2277, Bayes Risk 4.15613, avg. confidence per-word 0.947808
LOG (lattice-to-ctm-conf[5.1.46~1-0d031]:main():lattice-to-ctm-conf.cc:148) For utterance FC001_si2278, Bayes Risk 0.411699, avg. confidence per-word 0.995568
LOG (lattice-to-ctm-conf[5.1.46~1-0d031]:main():lattice-to-ctm-conf.cc:148) For utterance FC001_si2279, Bayes Risk 0.863168, avg. confidence per-word 0.975838
LOG (lattice-to-ctm-conf[5.1.46~1-0d031]:main():lattice-to-ctm-conf.cc:148) For utterance FC001_si2280, Bayes Risk 1.45869, avg. confidence per-word 0.985433
LOG (lattice-to-ctm-conf[5.1.46~1-0d031]:main():lattice-to-ctm-conf.cc:148) For utterance FC001_si2281, Bayes Risk 1.60926, avg. confidence per-word 0.962693
LOG (lattice-to-ctm-conf[5.1.46~1-0d031]:main():lattice-to-ctm-conf.cc:148) For utterance FC001_si2282, Bayes Risk 3.94857, avg. confidence per-word 0.966613
LOG (lattice-to-ctm-conf[5.1.46~1-0d031]:main():lattice-to-ctm-conf.cc:148) For utterance FC001_si2283, Bayes Risk 2.47785, avg. confidence per-word 0.971876
LOG (lattice-to-ctm-conf[5.1.46~1-0d031]:main():lattice-to-ctm-conf.cc:148) For utterance FC001_si2284, Bayes Risk 1.54555, avg. confidence per-word 0.993284
LOG (lattice-to-ctm-conf[5.1.46~1-0d031]:main():lattice-to-ctm-conf.cc:148) For utterance FC001_si2285, Bayes Risk 2.21076, avg. confidence per-word 0.943902
LOG (lattice-to-ctm-conf[5.1.46~1-0d031]:main():lattice-to-ctm-conf.cc:148) For utterance FC001_si2286, Bayes Risk 1.49312, avg. confidence per-word 0.95917
LOG (lattice-to-ctm-conf[5.1.46~1-0d031]:main():lattice-to-ctm-conf.cc:148) For utterance FC001_si2287, Bayes Risk 0.766807, avg. confidence per-word 0.970902
LOG (lattice-to-ctm-conf[5.1.46~1-0d031]:main():lattice-to-ctm-conf.cc:148) For utterance FC001_si2288, Bayes Risk 3.54499, avg. confidence per-word 0.967843
LOG (lattice-to-ctm-conf[5.1.46~1-0d031]:main():lattice-to-ctm-conf.cc:148) For utterance FC001_si2289, Bayes Risk 1.49551, avg. confidence per-word 0.953245
LOG (lattice-to-ctm-conf[5.1.46~1-0d031]:main():lattice-to-ctm-conf.cc:148) For utterance FC001_si2290, Bayes Risk 2.38251, avg. confidence per-word 0.971146
LOG (lattice-to-ctm-conf[5.1.46~1-0d031]:main():lattice-to-ctm-conf.cc:148) For utterance FC001_si2291, Bayes Risk 2.07103, avg. confidence per-word 0.974703
LOG (lattice-to-ctm-conf[5.1.46~1-0d031]:main():lattice-to-ctm-conf.cc:148) For utterance FC001_si2292, Bayes Risk 0.944163, avg. confidence per-word 0.989001
LOG (lattice-to-ctm-conf[5.1.46~1-0d031]:main():lattice-to-ctm-conf.cc:148) For utterance FC001_si2293, Bayes Risk 3.1707, avg. confidence per-word 0.985058
LOG (lattice-to-ctm-conf[5.1.46~1-0d031]:main():lattice-to-ctm-conf.cc:148) For utterance FC001_si2294, Bayes Risk 1.39972, avg. confidence per-word 0.985884
LOG (lattice-to-ctm-conf[5.1.46~1-0d031]:main():lattice-to-ctm-conf.cc:148) For utterance FC001_si2295, Bayes Risk 2.0828, avg. confidence per-word 0.961212
LOG (lattice-to-ctm-conf[5.1.46~1-0d031]:main():lattice-to-ctm-conf.cc:148) For utterance FC001_si2296, Bayes Risk 1.47476, avg. confidence per-word 0.978313
LOG (lattice-to-ctm-conf[5.1.46~1-0d031]:main():lattice-to-ctm-conf.cc:148) For utterance FC001_si2297, Bayes Risk 1.71899, avg. confidence per-word 0.968846
LOG (lattice-to-ctm-conf[5.1.46~1-0d031]:main():lattice-to-ctm-conf.cc:148) For utterance FC001_si2298, Bayes Risk 2.40051, avg. confidence per-word 0.971106
LOG (lattice-to-ctm-conf[5.1.46~1-0d031]:main():lattice-to-ctm-conf.cc:148) For utterance FC001_si2299, Bayes Risk 2.80967, avg. confidence per-word 0.965087
LOG (lattice-to-ctm-conf[5.1.46~1-0d031]:main():lattice-to-ctm-conf.cc:148) For utterance FC001_si2300, Bayes Risk 0.630533, avg. confidence per-word 0.991118
LOG (lattice-to-ctm-conf[5.1.46~1-0d031]:main():lattice-to-ctm-conf.cc:148) For utterance FC001_si2301, Bayes Risk 2.80521, avg. confidence per-word 0.982553
LOG (lattice-to-ctm-conf[5.1.46~1-0d031]:main():lattice-to-ctm-conf.cc:148) For utterance FC001_si2302, Bayes Risk 3.15161, avg. confidence per-word 0.977016
LOG (lattice-to-ctm-conf[5.1.46~1-0d031]:main():lattice-to-ctm-conf.cc:148) For utterance FC001_si2303, Bayes Risk 1.1915, avg. confidence per-word 0.977059
LOG (lattice-to-ctm-conf[5.1.46~1-0d031]:main():lattice-to-ctm-conf.cc:148) For utterance FC001_si2304, Bayes Risk 2.24136, avg. confidence per-word 0.955447
LOG (lattice-to-ctm-conf[5.1.46~1-0d031]:main():lattice-to-ctm-conf.cc:148) For utterance FC001_si2305, Bayes Risk 1.29652, avg. confidence per-word 0.96931
LOG (lattice-to-ctm-conf[5.1.46~1-0d031]:main():lattice-to-ctm-conf.cc:148) For utterance FC001_si2306, Bayes Risk 0.99913, avg. confidence per-word 0.976226
LOG (lattice-to-ctm-conf[5.1.46~1-0d031]:main():lattice-to-ctm-conf.cc:148) For utterance FC001_si2307, Bayes Risk 2.17731, avg. confidence per-word 0.968236
LOG (lattice-to-ctm-conf[5.1.46~1-0d031]:main():lattice-to-ctm-conf.cc:148) For utterance FC001_si2308, Bayes Risk 0.73061, avg. confidence per-word 0.978394
LOG (lattice-to-ctm-conf[5.1.46~1-0d031]:main():lattice-to-ctm-conf.cc:148) For utterance FC001_si2309, Bayes Risk 1.05507, avg. confidence per-word 0.979447
LOG (lattice-to-ctm-conf[5.1.46~1-0d031]:main():lattice-to-ctm-conf.cc:148) For utterance FC001_si2310, Bayes Risk 0.576132, avg. confidence per-word 0.997832
LOG (lattice-to-ctm-conf[5.1.46~1-0d031]:main():lattice-to-ctm-conf.cc:148) For utterance FC001_si2311, Bayes Risk 0.539107, avg. confidence per-word 0.995742
LOG (lattice-to-ctm-conf[5.1.46~1-0d031]:main():lattice-to-ctm-conf.cc:148) For utterance FC001_si2312, Bayes Risk 0.792906, avg. confidence per-word 0.976389
LOG (lattice-to-ctm-conf[5.1.46~1-0d031]:main():lattice-to-ctm-conf.cc:148) For utterance FC001_si2313, Bayes Risk 4.28541, avg. confidence per-word 0.956765
LOG (lattice-to-ctm-conf[5.1.46~1-0d031]:main():lattice-to-ctm-conf.cc:148) For utterance FC001_si2314, Bayes Risk 0.8528, avg. confidence per-word 0.974116
LOG (lattice-to-ctm-conf[5.1.46~1-0d031]:main():lattice-to-ctm-conf.cc:148) For utterance FC001_si2315, Bayes Risk 2.07091, avg. confidence per-word 0.940557
LOG (lattice-to-ctm-conf[5.1.46~1-0d031]:main():lattice-to-ctm-conf.cc:148) For utterance FC001_si2316, Bayes Risk 2.28283, avg. confidence per-word 0.955313
LOG (lattice-to-ctm-conf[5.1.46~1-0d031]:main():lattice-to-ctm-conf.cc:148) For utterance FC001_si2317, Bayes Risk 1.91663, avg. confidence per-word 0.96956
LOG (lattice-to-ctm-conf[5.1.46~1-0d031]:main():lattice-to-ctm-conf.cc:148) For utterance FC001_si2318, Bayes Risk 1.71207, avg. confidence per-word 0.976936
LOG (lattice-to-ctm-conf[5.1.46~1-0d031]:main():lattice-to-ctm-conf.cc:148) For utterance FC001_si2319, Bayes Risk 0.861167, avg. confidence per-word 0.973241
LOG (lattice-to-ctm-conf[5.1.46~1-0d031]:main():lattice-to-ctm-conf.cc:148) For utterance FC001_si2320, Bayes Risk 2.62182, avg. confidence per-word 0.976392
LOG (lattice-to-ctm-conf[5.1.46~1-0d031]:main():lattice-to-ctm-conf.cc:148) For utterance FC001_si2321, Bayes Risk 1.27286, avg. confidence per-word 0.980606
LOG (lattice-to-ctm-conf[5.1.46~1-0d031]:main():lattice-to-ctm-conf.cc:148) For utterance FC001_si2322, Bayes Risk 2.05692, avg. confidence per-word 0.972096
LOG (lattice-to-ctm-conf[5.1.46~1-0d031]:main():lattice-to-ctm-conf.cc:148) For utterance FC001_si2323, Bayes Risk 1.42599, avg. confidence per-word 0.983454
LOG (lattice-to-ctm-conf[5.1.46~1-0d031]:main():lattice-to-ctm-conf.cc:148) For utterance FC001_si2324, Bayes Risk 2.87287, avg. confidence per-word 0.965555
LOG (lattice-to-ctm-conf[5.1.46~1-0d031]:main():lattice-to-ctm-conf.cc:148) For utterance FC001_si2325, Bayes Risk 2.43699, avg. confidence per-word 0.953658
LOG (lattice-to-ctm-conf[5.1.46~1-0d031]:main():lattice-to-ctm-conf.cc:148) For utterance FC001_si2326, Bayes Risk 2.70692, avg. confidence per-word 0.972985
LOG (lattice-to-ctm-conf[5.1.46~1-0d031]:main():lattice-to-ctm-conf.cc:148) For utterance FC001_si2327, Bayes Risk 1.77433, avg. confidence per-word 0.974006
LOG (lattice-to-ctm-conf[5.1.46~1-0d031]:main():lattice-to-ctm-conf.cc:148) For utterance FC001_si2328, Bayes Risk 0.094313, avg. confidence per-word 0.994926
LOG (lattice-to-ctm-conf[5.1.46~1-0d031]:main():lattice-to-ctm-conf.cc:148) For utterance FC001_si2329, Bayes Risk 1.24461, avg. confidence per-word 0.972677
LOG (lattice-to-ctm-conf[5.1.46~1-0d031]:main():lattice-to-ctm-conf.cc:148) For utterance FC001_si2330, Bayes Risk 0.536914, avg. confidence per-word 0.997866
LOG (lattice-to-ctm-conf[5.1.46~1-0d031]:main():lattice-to-ctm-conf.cc:148) For utterance FC001_si2331, Bayes Risk 1.98997, avg. confidence per-word 0.970031
LOG (lattice-to-ctm-conf[5.1.46~1-0d031]:main():lattice-to-ctm-conf.cc:148) For utterance FC001_si2332, Bayes Risk 1.05901, avg. confidence per-word 0.939394
LOG (lattice-to-ctm-conf[5.1.46~1-0d031]:main():lattice-to-ctm-conf.cc:148) For utterance FC001_si2333, Bayes Risk 2.73307, avg. confidence per-word 0.955337
LOG (lattice-to-ctm-conf[5.1.46~1-0d031]:main():lattice-to-ctm-conf.cc:148) For utterance FC001_si2334, Bayes Risk 1.72927, avg. confidence per-word 0.975677
LOG (lattice-to-ctm-conf[5.1.46~1-0d031]:main():lattice-to-ctm-conf.cc:148) For utterance FC001_si2335, Bayes Risk 0.359464, avg. confidence per-word 0.993547
LOG (lattice-to-ctm-conf[5.1.46~1-0d031]:main():lattice-to-ctm-conf.cc:148) For utterance FC001_si2336, Bayes Risk 0.979466, avg. confidence per-word 0.997577
LOG (lattice-to-ctm-conf[5.1.46~1-0d031]:main():lattice-to-ctm-conf.cc:148) For utterance FC001_si2337, Bayes Risk 1.19744, avg. confidence per-word 0.998802
LOG (lattice-to-ctm-conf[5.1.46~1-0d031]:main():lattice-to-ctm-conf.cc:148) For utterance FC001_si2338, Bayes Risk 1.01445, avg. confidence per-word 0.998999
LOG (lattice-to-ctm-conf[5.1.46~1-0d031]:main():lattice-to-ctm-conf.cc:148) For utterance FC001_si2339, Bayes Risk 2.09689, avg. confidence per-word 0.933687
LOG (lattice-to-ctm-conf[5.1.46~1-0d031]:main():lattice-to-ctm-conf.cc:148) For utterance FC001_si2340, Bayes Risk 2.20711, avg. confidence per-word 0.970426
LOG (lattice-to-ctm-conf[5.1.46~1-0d031]:main():lattice-to-ctm-conf.cc:148) For utterance FC001_si2341, Bayes Risk 0.437807, avg. confidence per-word 0.993373
LOG (lattice-to-ctm-conf[5.1.46~1-0d031]:main():lattice-to-ctm-conf.cc:148) For utterance FC001_si2342, Bayes Risk 1.23899, avg. confidence per-word 0.963168
LOG (lattice-to-ctm-conf[5.1.46~1-0d031]:main():lattice-to-ctm-conf.cc:148) For utterance FC001_sx363, Bayes Risk 1.32735, avg. confidence per-word 0.971587
LOG (lattice-to-ctm-conf[5.1.46~1-0d031]:main():lattice-to-ctm-conf.cc:148) For utterance FC001_sx364, Bayes Risk 3.97717, avg. confidence per-word 0.953646
LOG (lattice-to-ctm-conf[5.1.46~1-0d031]:main():lattice-to-ctm-conf.cc:148) For utterance FC001_sx365, Bayes Risk 2.58085, avg. confidence per-word 0.960517
LOG (lattice-to-ctm-conf[5.1.46~1-0d031]:main():lattice-to-ctm-conf.cc:148) For utterance FC001_sx366, Bayes Risk 1.79896, avg. confidence per-word 0.978662
LOG (lattice-to-ctm-conf[5.1.46~1-0d031]:main():lattice-to-ctm-conf.cc:148) For utterance FC001_sx367, Bayes Risk 1.42761, avg. confidence per-word 0.971865
LOG (lattice-to-ctm-conf[5.1.46~1-0d031]:main():lattice-to-ctm-conf.cc:148) For utterance FC001_sx368, Bayes Risk 2.178, avg. confidence per-word 0.974934
LOG (lattice-to-ctm-conf[5.1.46~1-0d031]:main():lattice-to-ctm-conf.cc:148) For utterance FC001_sx369, Bayes Risk 0.714913, avg. confidence per-word 0.987392
LOG (lattice-to-ctm-conf[5.1.46~1-0d031]:main():lattice-to-ctm-conf.cc:148) For utterance FC001_sx370, Bayes Risk 2.419, avg. confidence per-word 0.957772
LOG (lattice-to-ctm-conf[5.1.46~1-0d031]:main():lattice-to-ctm-conf.cc:148) For utterance FC001_sx371, Bayes Risk 2.45554, avg. confidence per-word 0.971954
LOG (lattice-to-ctm-conf[5.1.46~1-0d031]:main():lattice-to-ctm-conf.cc:148) For utterance FC001_sx372, Bayes Risk 2.45252, avg. confidence per-word 0.96359
LOG (lattice-to-ctm-conf[5.1.46~1-0d031]:main():lattice-to-ctm-conf.cc:148) For utterance FC001_sx373, Bayes Risk 0.979469, avg. confidence per-word 0.984125
LOG (lattice-to-ctm-conf[5.1.46~1-0d031]:main():lattice-to-ctm-conf.cc:148) For utterance FC001_sx374, Bayes Risk 0.469027, avg. confidence per-word 0.985734
LOG (lattice-to-ctm-conf[5.1.46~1-0d031]:main():lattice-to-ctm-conf.cc:148) For utterance FC001_sx375, Bayes Risk 1.14695, avg. confidence per-word 0.987945
LOG (lattice-to-ctm-conf[5.1.46~1-0d031]:main():lattice-to-ctm-conf.cc:148) For utterance FC001_sx376, Bayes Risk 1.61868, avg. confidence per-word 0.975462
LOG (lattice-to-ctm-conf[5.1.46~1-0d031]:main():lattice-to-ctm-conf.cc:148) For utterance FC001_sx377, Bayes Risk 2.51685, avg. confidence per-word 0.983208
LOG (lattice-to-ctm-conf[5.1.46~1-0d031]:main():lattice-to-ctm-conf.cc:148) For utterance FC001_sx378, Bayes Risk 2.35142, avg. confidence per-word 0.960099
LOG (lattice-to-ctm-conf[5.1.46~1-0d031]:main():lattice-to-ctm-conf.cc:148) For utterance FC001_sx379, Bayes Risk 1.60543, avg. confidence per-word 0.970367
LOG (lattice-to-ctm-conf[5.1.46~1-0d031]:main():lattice-to-ctm-conf.cc:148) For utterance FC001_sx380, Bayes Risk 0.871085, avg. confidence per-word 0.995676
LOG (lattice-to-ctm-conf[5.1.46~1-0d031]:main():lattice-to-ctm-conf.cc:148) For utterance FC001_sx381, Bayes Risk 1.07774, avg. confidence per-word 0.979591
LOG (lattice-to-ctm-conf[5.1.46~1-0d031]:main():lattice-to-ctm-conf.cc:148) For utterance FC001_sx382, Bayes Risk 1.87977, avg. confidence per-word 0.987702
LOG (lattice-to-ctm-conf[5.1.46~1-0d031]:main():lattice-to-ctm-conf.cc:148) For utterance FC001_sx383, Bayes Risk 2.11159, avg. confidence per-word 0.951462
LOG (lattice-to-ctm-conf[5.1.46~1-0d031]:main():lattice-to-ctm-conf.cc:148) For utterance FC001_sx384, Bayes Risk 1.22615, avg. confidence per-word 0.977629
LOG (lattice-to-ctm-conf[5.1.46~1-0d031]:main():lattice-to-ctm-conf.cc:148) For utterance FC001_sx385, Bayes Risk 1.46831, avg. confidence per-word 0.9909
LOG (lattice-to-ctm-conf[5.1.46~1-0d031]:main():lattice-to-ctm-conf.cc:148) For utterance FC001_sx386, Bayes Risk 1.61463, avg. confidence per-word 0.988281
LOG (lattice-to-ctm-conf[5.1.46~1-0d031]:main():lattice-to-ctm-conf.cc:148) For utterance FC001_sx387, Bayes Risk 0.803191, avg. confidence per-word 0.98345
LOG (lattice-to-ctm-conf[5.1.46~1-0d031]:main():lattice-to-ctm-conf.cc:148) For utterance FC001_sx388, Bayes Risk 1.63899, avg. confidence per-word 0.971754
LOG (lattice-to-ctm-conf[5.1.46~1-0d031]:main():lattice-to-ctm-conf.cc:148) For utterance FC001_sx389, Bayes Risk 1.28132, avg. confidence per-word 0.972443
LOG (lattice-to-ctm-conf[5.1.46~1-0d031]:main():lattice-to-ctm-conf.cc:148) For utterance FC001_sx390, Bayes Risk 1.61304, avg. confidence per-word 0.986233
LOG (lattice-to-ctm-conf[5.1.46~1-0d031]:main():lattice-to-ctm-conf.cc:148) For utterance FC001_sx391, Bayes Risk 0.568499, avg. confidence per-word 0.996262
LOG (lattice-to-ctm-conf[5.1.46~1-0d031]:main():lattice-to-ctm-conf.cc:148) For utterance FC001_sx392, Bayes Risk 2.57444, avg. confidence per-word 0.970894
LOG (lattice-to-ctm-conf[5.1.46~1-0d031]:main():lattice-to-ctm-conf.cc:148) For utterance FC001_sx393, Bayes Risk 2.07928, avg. confidence per-word 0.939599
LOG (lattice-to-ctm-conf[5.1.46~1-0d031]:main():lattice-to-ctm-conf.cc:148) For utterance FC001_sx394, Bayes Risk 1.74366, avg. confidence per-word 0.968816
LOG (lattice-to-ctm-conf[5.1.46~1-0d031]:main():lattice-to-ctm-conf.cc:148) For utterance FC001_sx395, Bayes Risk 2.10783, avg. confidence per-word 0.990988
LOG (lattice-to-ctm-conf[5.1.46~1-0d031]:main():lattice-to-ctm-conf.cc:148) For utterance FC001_sx396, Bayes Risk 2.30159, avg. confidence per-word 0.97084
LOG (lattice-to-ctm-conf[5.1.46~1-0d031]:main():lattice-to-ctm-conf.cc:148) For utterance FC001_sx397, Bayes Risk 1.28849, avg. confidence per-word 0.984972
LOG (lattice-to-ctm-conf[5.1.46~1-0d031]:main():lattice-to-ctm-conf.cc:148) For utterance FC001_sx398, Bayes Risk 1.1908, avg. confidence per-word 0.982467
LOG (lattice-to-ctm-conf[5.1.46~1-0d031]:main():lattice-to-ctm-conf.cc:148) For utterance FC001_sx399, Bayes Risk 1.97222, avg. confidence per-word 0.958342
LOG (lattice-to-ctm-conf[5.1.46~1-0d031]:main():lattice-to-ctm-conf.cc:148) For utterance FC001_sx400, Bayes Risk 2.49225, avg. confidence per-word 0.964098
LOG (lattice-to-ctm-conf[5.1.46~1-0d031]:main():lattice-to-ctm-conf.cc:148) For utterance FC001_sx401, Bayes Risk 4.09924, avg. confidence per-word 0.95298
LOG (lattice-to-ctm-conf[5.1.46~1-0d031]:main():lattice-to-ctm-conf.cc:148) For utterance FC001_sx402, Bayes Risk 0.74164, avg. confidence per-word 0.993323
LOG (lattice-to-ctm-conf[5.1.46~1-0d031]:main():lattice-to-ctm-conf.cc:148) For utterance FC001_sx403, Bayes Risk 1.38416, avg. confidence per-word 0.986934
LOG (lattice-to-ctm-conf[5.1.46~1-0d031]:main():lattice-to-ctm-conf.cc:148) For utterance FC001_sx404, Bayes Risk 2.11933, avg. confidence per-word 0.946548
LOG (lattice-to-ctm-conf[5.1.46~1-0d031]:main():lattice-to-ctm-conf.cc:148) For utterance FC001_sx405, Bayes Risk 0.819579, avg. confidence per-word 0.985639
LOG (lattice-to-ctm-conf[5.1.46~1-0d031]:main():lattice-to-ctm-conf.cc:148) For utterance FC001_sx406, Bayes Risk 3.38489, avg. confidence per-word 0.973404
LOG (lattice-to-ctm-conf[5.1.46~1-0d031]:main():lattice-to-ctm-conf.cc:148) For utterance FC001_sx407, Bayes Risk 1.14611, avg. confidence per-word 0.989671
LOG (lattice-to-ctm-conf[5.1.46~1-0d031]:main():lattice-to-ctm-conf.cc:148) For utterance FC001_sx408, Bayes Risk 1.6956, avg. confidence per-word 0.972363
LOG (lattice-to-ctm-conf[5.1.46~1-0d031]:main():lattice-to-ctm-conf.cc:148) For utterance FC001_sx409, Bayes Risk 2.79673, avg. confidence per-word 0.973592
LOG (lattice-to-ctm-conf[5.1.46~1-0d031]:main():lattice-to-ctm-conf.cc:148) For utterance FC001_sx410, Bayes Risk 1.54186, avg. confidence per-word 0.962655
LOG (lattice-to-ctm-conf[5.1.46~1-0d031]:main():lattice-to-ctm-conf.cc:148) For utterance FC001_sx411, Bayes Risk 1.81034, avg. confidence per-word 0.95929
LOG (lattice-to-ctm-conf[5.1.46~1-0d031]:main():lattice-to-ctm-conf.cc:148) For utterance FC001_sx412, Bayes Risk 2.16959, avg. confidence per-word 0.974378
LOG (lattice-to-ctm-conf[5.1.46~1-0d031]:main():lattice-to-ctm-conf.cc:148) For utterance FC001_sx413, Bayes Risk 3.21776, avg. confidence per-word 0.959583
LOG (lattice-to-ctm-conf[5.1.46~1-0d031]:main():lattice-to-ctm-conf.cc:148) For utterance FC001_sx414, Bayes Risk 1.74826, avg. confidence per-word 0.990968
LOG (lattice-to-ctm-conf[5.1.46~1-0d031]:main():lattice-to-ctm-conf.cc:148) For utterance FC001_sx415, Bayes Risk 1.02879, avg. confidence per-word 0.989611
LOG (lattice-to-ctm-conf[5.1.46~1-0d031]:main():lattice-to-ctm-conf.cc:148) For utterance FC001_sx416, Bayes Risk 1.6006, avg. confidence per-word 0.977852
LOG (lattice-to-ctm-conf[5.1.46~1-0d031]:main():lattice-to-ctm-conf.cc:148) For utterance FC001_sx417, Bayes Risk 2.03295, avg. confidence per-word 0.955882
LOG (lattice-to-ctm-conf[5.1.46~1-0d031]:main():lattice-to-ctm-conf.cc:148) For utterance FC001_sx418, Bayes Risk 1.16241, avg. confidence per-word 0.988439
LOG (lattice-to-ctm-conf[5.1.46~1-0d031]:main():lattice-to-ctm-conf.cc:148) For utterance FC001_sx419, Bayes Risk 1.63488, avg. confidence per-word 0.989211
LOG (lattice-to-ctm-conf[5.1.46~1-0d031]:main():lattice-to-ctm-conf.cc:148) For utterance FC001_sx420, Bayes Risk 1.99771, avg. confidence per-word 0.97324
LOG (lattice-to-ctm-conf[5.1.46~1-0d031]:main():lattice-to-ctm-conf.cc:148) For utterance FC001_sx421, Bayes Risk 1.04285, avg. confidence per-word 0.991646
LOG (lattice-to-ctm-conf[5.1.46~1-0d031]:main():lattice-to-ctm-conf.cc:148) For utterance FC001_sx422, Bayes Risk 1.10749, avg. confidence per-word 0.994889
LOG (lattice-to-ctm-conf[5.1.46~1-0d031]:main():lattice-to-ctm-conf.cc:148) For utterance FC001_sx423, Bayes Risk 1.53749, avg. confidence per-word 0.982711
LOG (lattice-to-ctm-conf[5.1.46~1-0d031]:main():lattice-to-ctm-conf.cc:148) For utterance FC001_sx424, Bayes Risk 1.84152, avg. confidence per-word 0.986518
LOG (lattice-to-ctm-conf[5.1.46~1-0d031]:main():lattice-to-ctm-conf.cc:148) For utterance FC001_sx425, Bayes Risk 0.112649, avg. confidence per-word 0.997321
LOG (lattice-to-ctm-conf[5.1.46~1-0d031]:main():lattice-to-ctm-conf.cc:148) For utterance FC001_sx426, Bayes Risk 2.141, avg. confidence per-word 0.977892
LOG (lattice-to-ctm-conf[5.1.46~1-0d031]:main():lattice-to-ctm-conf.cc:148) For utterance FC001_sx427, Bayes Risk 1.52519, avg. confidence per-word 0.962268
LOG (lattice-to-ctm-conf[5.1.46~1-0d031]:main():lattice-to-ctm-conf.cc:148) For utterance FC001_sx428, Bayes Risk 3.79984, avg. confidence per-word 0.932895
LOG (lattice-to-ctm-conf[5.1.46~1-0d031]:main():lattice-to-ctm-conf.cc:148) For utterance FC001_sx429, Bayes Risk 2.66922, avg. confidence per-word 0.961817
LOG (lattice-to-ctm-conf[5.1.46~1-0d031]:main():lattice-to-ctm-conf.cc:148) For utterance FC001_sx430, Bayes Risk 2.58775, avg. confidence per-word 0.956098
LOG (lattice-to-ctm-conf[5.1.46~1-0d031]:main():lattice-to-ctm-conf.cc:148) For utterance FC001_sx431, Bayes Risk 1.90414, avg. confidence per-word 0.972118
LOG (lattice-to-ctm-conf[5.1.46~1-0d031]:main():lattice-to-ctm-conf.cc:148) For utterance FC001_sx432, Bayes Risk 2.87017, avg. confidence per-word 0.96154
LOG (lattice-to-ctm-conf[5.1.46~1-0d031]:main():lattice-to-ctm-conf.cc:148) For utterance FC001_sx433, Bayes Risk 2.9817, avg. confidence per-word 0.966406
LOG (lattice-to-ctm-conf[5.1.46~1-0d031]:main():lattice-to-ctm-conf.cc:148) For utterance FC001_sx434, Bayes Risk 2.48543, avg. confidence per-word 0.960665
LOG (lattice-to-ctm-conf[5.1.46~1-0d031]:main():lattice-to-ctm-conf.cc:148) For utterance FC001_sx435, Bayes Risk 3.56745, avg. confidence per-word 0.973092
LOG (lattice-to-ctm-conf[5.1.46~1-0d031]:main():lattice-to-ctm-conf.cc:148) For utterance FC001_sx436, Bayes Risk 0.383246, avg. confidence per-word 1
LOG (lattice-to-ctm-conf[5.1.46~1-0d031]:main():lattice-to-ctm-conf.cc:148) For utterance FC001_sx437, Bayes Risk 1.85869, avg. confidence per-word 0.981845
LOG (lattice-to-ctm-conf[5.1.46~1-0d031]:main():lattice-to-ctm-conf.cc:148) For utterance FC001_sx438, Bayes Risk 4.55232, avg. confidence per-word 0.94838
LOG (lattice-to-ctm-conf[5.1.46~1-0d031]:main():lattice-to-ctm-conf.cc:148) For utterance FC001_sx439, Bayes Risk 1.78434, avg. confidence per-word 0.970382
LOG (lattice-to-ctm-conf[5.1.46~1-0d031]:main():lattice-to-ctm-conf.cc:148) For utterance FC001_sx440, Bayes Risk 1.28491, avg. confidence per-word 0.97954
LOG (lattice-to-ctm-conf[5.1.46~1-0d031]:main():lattice-to-ctm-conf.cc:148) For utterance FC001_sx441, Bayes Risk 3.0673, avg. confidence per-word 0.953949
LOG (lattice-to-ctm-conf[5.1.46~1-0d031]:main():lattice-to-ctm-conf.cc:148) For utterance FC001_sx442, Bayes Risk 2.56199, avg. confidence per-word 0.949396
LOG (lattice-to-ctm-conf[5.1.46~1-0d031]:main():lattice-to-ctm-conf.cc:148) For utterance FC001_sx443, Bayes Risk 1.20053, avg. confidence per-word 0.967285
LOG (lattice-to-ctm-conf[5.1.46~1-0d031]:main():lattice-to-ctm-conf.cc:148) For utterance FC001_sx444, Bayes Risk 2.28484, avg. confidence per-word 0.965213
LOG (lattice-to-ctm-conf[5.1.46~1-0d031]:main():lattice-to-ctm-conf.cc:148) For utterance FC001_sx445, Bayes Risk 1.15476, avg. confidence per-word 0.972044
LOG (lattice-to-ctm-conf[5.1.46~1-0d031]:main():lattice-to-ctm-conf.cc:148) For utterance FC001_sx446, Bayes Risk 2.6857, avg. confidence per-word 0.951238
LOG (lattice-to-ctm-conf[5.1.46~1-0d031]:main():lattice-to-ctm-conf.cc:148) For utterance FC001_sx447, Bayes Risk 2.30653, avg. confidence per-word 0.946676
LOG (lattice-to-ctm-conf[5.1.46~1-0d031]:main():lattice-to-ctm-conf.cc:148) For utterance FC001_sx448, Bayes Risk 1.87066, avg. confidence per-word 0.944761
LOG (lattice-to-ctm-conf[5.1.46~1-0d031]:main():lattice-to-ctm-conf.cc:148) For utterance FC001_sx449, Bayes Risk 1.82368, avg. confidence per-word 0.976559
LOG (lattice-to-ctm-conf[5.1.46~1-0d031]:main():lattice-to-ctm-conf.cc:148) For utterance FC001_sx450, Bayes Risk 2.04633, avg. confidence per-word 0.977326
LOG (lattice-align-phones[5.1.46~1-0d031]:main():lattice-align-phones.cc:104) Successfully aligned 367 lattices; 0 had errors.
LOG (lattice-to-ctm-conf[5.1.46~1-0d031]:main():lattice-to-ctm-conf.cc:148) For utterance FC001_sx451, Bayes Risk 2.58259, avg. confidence per-word 0.968226
LOG (lattice-to-ctm-conf[5.1.46~1-0d031]:main():lattice-to-ctm-conf.cc:148) For utterance FC001_sx452, Bayes Risk 2.78884, avg. confidence per-word 0.977325
LOG (lattice-to-ctm-conf[5.1.46~1-0d031]:main():lattice-to-ctm-conf.cc:157) Done 367 lattices.
LOG (lattice-to-ctm-conf[5.1.46~1-0d031]:main():lattice-to-ctm-conf.cc:158) Overall average Bayes Risk per sentence is 1.68253 and per word, 0.0530078
# Accounting: time=2 threads=1
# Ended (code 0) at Tue Apr 18 15:40:52 CST 2017, elapsed time 2 seconds
