# mkdir exp/dnn4_pretrain-dbn_dnn/decode_test/score_15 ; cat exp/dnn4_pretrain-dbn_dnn/decode_test/scoring/15.ctm | utils/int2sym.pl -f 5 exp/mono/graph/words.txt | local/timit_norm_trans.pl -i - -m conf/phones.60-48-39.map -from 48 -to 39 > exp/dnn4_pretrain-dbn_dnn/decode_test/scoring/15.ctm_39phn 
# Started at Tue Apr 18 15:41:35 CST 2017
#
# Accounting: time=1 threads=1
# Ended (code 0) at Tue Apr 18 15:41:36 CST 2017, elapsed time 1 seconds
